[2021-05-10T07:27:36.797+0000][gc,heap] Heap region size: 1M
[2021-05-10T07:27:36.807+0000][gc     ] Using G1
[2021-05-10T07:27:36.807+0000][gc,heap,coops] Heap address: 0x00000000c0000000, size: 1024 MB, Compressed Oops mode: 32-bit
[2021-05-10T07:27:36.807+0000][gc,cds       ] Mark closed archive regions in map: [0x00000000fff00000, 0x00000000fff6aff8]
[2021-05-10T07:27:36.807+0000][gc,cds       ] Mark open archive regions in map: [0x00000000ffe00000, 0x00000000ffe46ff8]
[2021-05-10T07:27:40.151+0000][gc,start     ] GC(0) Pause Young (Normal) (G1 Evacuation Pause)
[2021-05-10T07:27:40.152+0000][gc,task      ] GC(0) Using 2 workers of 2 for evacuation
[2021-05-10T07:27:40.175+0000][gc,mmu       ] GC(0) MMU target violated: 21.0ms (20.0ms/21.0ms)
[2021-05-10T07:27:40.175+0000][gc,phases    ] GC(0)   Pre Evacuate Collection Set: 0.0ms
[2021-05-10T07:27:40.175+0000][gc,phases    ] GC(0)   Evacuate Collection Set: 17.9ms
[2021-05-10T07:27:40.175+0000][gc,phases    ] GC(0)   Post Evacuate Collection Set: 5.7ms
[2021-05-10T07:27:40.175+0000][gc,phases    ] GC(0)   Other: 0.3ms
[2021-05-10T07:27:40.175+0000][gc,heap      ] GC(0) Eden regions: 51->0(44)
[2021-05-10T07:27:40.175+0000][gc,heap      ] GC(0) Survivor regions: 0->7(7)
[2021-05-10T07:27:40.175+0000][gc,heap      ] GC(0) Old regions: 2->2
[2021-05-10T07:27:40.175+0000][gc,heap      ] GC(0) Humongous regions: 0->0
[2021-05-10T07:27:40.175+0000][gc,metaspace ] GC(0) Metaspace: 15798K->15798K(1062912K)
[2021-05-10T07:27:40.175+0000][gc           ] GC(0) Pause Young (Normal) (G1 Evacuation Pause) 51M->7M(1024M) 24.026ms
[2021-05-10T07:27:40.175+0000][gc,cpu       ] GC(0) User=0.03s Sys=0.00s Real=0.03s
[2021-05-10T07:27:41.666+0000][gc,start     ] GC(1) Pause Young (Concurrent Start) (Metadata GC Threshold)
[2021-05-10T07:27:41.666+0000][gc,task      ] GC(1) Using 2 workers of 2 for evacuation
[2021-05-10T07:27:41.687+0000][gc,mmu       ] GC(1) MMU target violated: 20.6ms (20.0ms/21.0ms)
[2021-05-10T07:27:41.687+0000][gc,phases    ] GC(1)   Pre Evacuate Collection Set: 0.1ms
[2021-05-10T07:27:41.687+0000][gc,phases    ] GC(1)   Evacuate Collection Set: 20.0ms
[2021-05-10T07:27:41.687+0000][gc,phases    ] GC(1)   Post Evacuate Collection Set: 0.4ms
[2021-05-10T07:27:41.687+0000][gc,phases    ] GC(1)   Other: 0.3ms
[2021-05-10T07:27:41.687+0000][gc,heap      ] GC(1) Eden regions: 19->0(50)
[2021-05-10T07:27:41.687+0000][gc,heap      ] GC(1) Survivor regions: 7->1(7)
[2021-05-10T07:27:41.687+0000][gc,heap      ] GC(1) Old regions: 2->9
[2021-05-10T07:27:41.687+0000][gc,heap      ] GC(1) Humongous regions: 0->0
[2021-05-10T07:27:41.687+0000][gc,metaspace ] GC(1) Metaspace: 20519K->20519K(1067008K)
[2021-05-10T07:27:41.687+0000][gc           ] GC(1) Pause Young (Concurrent Start) (Metadata GC Threshold) 25M->8M(1024M) 20.813ms
[2021-05-10T07:27:41.687+0000][gc,cpu       ] GC(1) User=0.03s Sys=0.00s Real=0.02s
[2021-05-10T07:27:41.687+0000][gc           ] GC(2) Concurrent Cycle
[2021-05-10T07:27:41.687+0000][gc,marking   ] GC(2) Concurrent Clear Claimed Marks
[2021-05-10T07:27:41.687+0000][gc,marking   ] GC(2) Concurrent Clear Claimed Marks 0.051ms
[2021-05-10T07:27:41.687+0000][gc,marking   ] GC(2) Concurrent Scan Root Regions
[2021-05-10T07:27:41.689+0000][gc,marking   ] GC(2) Concurrent Scan Root Regions 1.236ms
[2021-05-10T07:27:41.689+0000][gc,marking   ] GC(2) Concurrent Mark (4.895s)
[2021-05-10T07:27:41.689+0000][gc,marking   ] GC(2) Concurrent Mark From Roots
[2021-05-10T07:27:41.689+0000][gc,task      ] GC(2) Using 1 workers of 1 for marking
[2021-05-10T07:27:41.700+0000][gc,marking   ] GC(2) Concurrent Mark From Roots 11.300ms
[2021-05-10T07:27:41.700+0000][gc,marking   ] GC(2) Concurrent Preclean
[2021-05-10T07:27:41.700+0000][gc,marking   ] GC(2) Concurrent Preclean 0.078ms
[2021-05-10T07:27:41.700+0000][gc,marking   ] GC(2) Concurrent Mark (4.895s, 4.906s) 11.428ms
[2021-05-10T07:27:41.700+0000][gc,start     ] GC(2) Pause Remark
[2021-05-10T07:27:41.704+0000][gc,stringtable] GC(2) Cleaned string and symbol table, strings: 6363 processed, 0 removed, symbols: 51814 processed, 59 removed
[2021-05-10T07:27:41.705+0000][gc            ] GC(2) Pause Remark 8M->8M(1024M) 4.379ms
[2021-05-10T07:27:41.705+0000][gc,cpu        ] GC(2) User=0.00s Sys=0.00s Real=0.00s
[2021-05-10T07:27:41.705+0000][gc,marking    ] GC(2) Concurrent Rebuild Remembered Sets
[2021-05-10T07:27:41.722+0000][gc,marking    ] GC(2) Concurrent Rebuild Remembered Sets 17.238ms
[2021-05-10T07:27:41.722+0000][gc,start      ] GC(2) Pause Cleanup
[2021-05-10T07:27:41.722+0000][gc            ] GC(2) Pause Cleanup 9M->9M(1024M) 0.325ms
[2021-05-10T07:27:41.722+0000][gc,cpu        ] GC(2) User=0.00s Sys=0.00s Real=0.00s
[2021-05-10T07:27:41.723+0000][gc,marking    ] GC(2) Concurrent Cleanup for Next Mark
[2021-05-10T07:27:41.745+0000][gc,marking    ] GC(2) Concurrent Cleanup for Next Mark 22.072ms
[2021-05-10T07:27:41.745+0000][gc            ] GC(2) Concurrent Cycle 57.409ms
[2021-05-10T07:27:43.781+0000][gc,start      ] GC(3) Pause Young (Normal) (G1 Evacuation Pause)
[2021-05-10T07:27:43.781+0000][gc,task       ] GC(3) Using 2 workers of 2 for evacuation
[2021-05-10T07:27:43.794+0000][gc,phases     ] GC(3)   Pre Evacuate Collection Set: 0.0ms
[2021-05-10T07:27:43.794+0000][gc,phases     ] GC(3)   Evacuate Collection Set: 12.6ms
[2021-05-10T07:27:43.794+0000][gc,phases     ] GC(3)   Post Evacuate Collection Set: 0.5ms
[2021-05-10T07:27:43.794+0000][gc,phases     ] GC(3)   Other: 0.2ms
[2021-05-10T07:27:43.794+0000][gc,heap       ] GC(3) Eden regions: 50->0(46)
[2021-05-10T07:27:43.794+0000][gc,heap       ] GC(3) Survivor regions: 1->5(7)
[2021-05-10T07:27:43.794+0000][gc,heap       ] GC(3) Old regions: 9->9
[2021-05-10T07:27:43.794+0000][gc,heap       ] GC(3) Humongous regions: 129->129
[2021-05-10T07:27:43.794+0000][gc,metaspace  ] GC(3) Metaspace: 29603K->29603K(1075200K)
[2021-05-10T07:27:43.794+0000][gc            ] GC(3) Pause Young (Normal) (G1 Evacuation Pause) 187M->140M(1024M) 13.473ms
[2021-05-10T07:27:43.794+0000][gc,cpu        ] GC(3) User=0.03s Sys=0.00s Real=0.01s
[2021-05-10T07:27:44.439+0000][gc,start      ] GC(4) Pause Young (Concurrent Start) (Metadata GC Threshold)
[2021-05-10T07:27:44.439+0000][gc,task       ] GC(4) Using 2 workers of 2 for evacuation
[2021-05-10T07:27:44.459+0000][gc,phases     ] GC(4)   Pre Evacuate Collection Set: 0.1ms
[2021-05-10T07:27:44.459+0000][gc,phases     ] GC(4)   Evacuate Collection Set: 18.9ms
[2021-05-10T07:27:44.459+0000][gc,phases     ] GC(4)   Post Evacuate Collection Set: 0.4ms
[2021-05-10T07:27:44.459+0000][gc,phases     ] GC(4)   Other: 0.3ms
[2021-05-10T07:27:44.459+0000][gc,heap       ] GC(4) Eden regions: 23->0(49)
[2021-05-10T07:27:44.459+0000][gc,heap       ] GC(4) Survivor regions: 5->2(7)
[2021-05-10T07:27:44.459+0000][gc,heap       ] GC(4) Old regions: 9->13
[2021-05-10T07:27:44.459+0000][gc,heap       ] GC(4) Humongous regions: 129->129
[2021-05-10T07:27:44.459+0000][gc,metaspace  ] GC(4) Metaspace: 34595K->34595K(1081344K)
[2021-05-10T07:27:44.459+0000][gc            ] GC(4) Pause Young (Concurrent Start) (Metadata GC Threshold) 163M->142M(1024M) 19.870ms
[2021-05-10T07:27:44.459+0000][gc,cpu        ] GC(4) User=0.04s Sys=0.00s Real=0.02s
[2021-05-10T07:27:44.459+0000][gc            ] GC(5) Concurrent Cycle
[2021-05-10T07:27:44.459+0000][gc,marking    ] GC(5) Concurrent Clear Claimed Marks
[2021-05-10T07:27:44.459+0000][gc,marking    ] GC(5) Concurrent Clear Claimed Marks 0.056ms
[2021-05-10T07:27:44.459+0000][gc,marking    ] GC(5) Concurrent Scan Root Regions
[2021-05-10T07:27:44.461+0000][gc,marking    ] GC(5) Concurrent Scan Root Regions 1.721ms
[2021-05-10T07:27:44.461+0000][gc,marking    ] GC(5) Concurrent Mark (7.667s)
[2021-05-10T07:27:44.461+0000][gc,marking    ] GC(5) Concurrent Mark From Roots
[2021-05-10T07:27:44.461+0000][gc,task       ] GC(5) Using 1 workers of 1 for marking
[2021-05-10T07:27:44.526+0000][gc,marking    ] GC(5) Concurrent Mark From Roots 65.152ms
[2021-05-10T07:27:44.526+0000][gc,marking    ] GC(5) Concurrent Preclean
[2021-05-10T07:27:44.526+0000][gc,marking    ] GC(5) Concurrent Preclean 0.100ms
[2021-05-10T07:27:44.526+0000][gc,marking    ] GC(5) Concurrent Mark (7.667s, 7.732s) 65.306ms
[2021-05-10T07:27:44.526+0000][gc,start      ] GC(5) Pause Remark
[2021-05-10T07:27:44.536+0000][gc,stringtable] GC(5) Cleaned string and symbol table, strings: 10373 processed, 12 removed, symbols: 82221 processed, 18 removed
[2021-05-10T07:27:44.537+0000][gc            ] GC(5) Pause Remark 144M->144M(1024M) 10.330ms
[2021-05-10T07:27:44.537+0000][gc,cpu        ] GC(5) User=0.02s Sys=0.00s Real=0.01s
[2021-05-10T07:27:44.537+0000][gc,marking    ] GC(5) Concurrent Rebuild Remembered Sets
[2021-05-10T07:27:44.595+0000][gc,marking    ] GC(5) Concurrent Rebuild Remembered Sets 58.328ms
[2021-05-10T07:27:44.595+0000][gc,start      ] GC(5) Pause Cleanup
[2021-05-10T07:27:44.596+0000][gc            ] GC(5) Pause Cleanup 146M->146M(1024M) 0.326ms
[2021-05-10T07:27:44.596+0000][gc,cpu        ] GC(5) User=0.00s Sys=0.00s Real=0.00s
[2021-05-10T07:27:44.596+0000][gc,marking    ] GC(5) Concurrent Cleanup for Next Mark
[2021-05-10T07:27:44.623+0000][gc,marking    ] GC(5) Concurrent Cleanup for Next Mark 27.440ms
[2021-05-10T07:27:44.623+0000][gc            ] GC(5) Concurrent Cycle 164.216ms
[2021-05-10T07:29:26.462+0000][gc,start      ] GC(6) Pause Young (Concurrent Start) (G1 Evacuation Pause)
[2021-05-10T07:29:26.471+0000][gc,task       ] GC(6) Using 2 workers of 2 for evacuation
[2021-05-10T07:29:26.486+0000][gc,phases     ] GC(6)   Pre Evacuate Collection Set: 0.3ms
[2021-05-10T07:29:26.486+0000][gc,phases     ] GC(6)   Evacuate Collection Set: 11.9ms
[2021-05-10T07:29:26.486+0000][gc,phases     ] GC(6)   Post Evacuate Collection Set: 0.7ms
[2021-05-10T07:29:26.486+0000][gc,phases     ] GC(6)   Other: 9.2ms
[2021-05-10T07:29:26.486+0000][gc,heap       ] GC(6) Eden regions: 49->0(46)
[2021-05-10T07:29:26.486+0000][gc,heap       ] GC(6) Survivor regions: 2->5(7)
[2021-05-10T07:29:26.486+0000][gc,heap       ] GC(6) Old regions: 13->13
[2021-05-10T07:29:26.486+0000][gc,heap       ] GC(6) Humongous regions: 129->129
[2021-05-10T07:29:26.494+0000][gc,metaspace  ] GC(6) Metaspace: 41738K->41738K(1087488K)
[2021-05-10T07:29:26.497+0000][gc            ] GC(6) Pause Young (Concurrent Start) (G1 Evacuation Pause) 191M->144M(1024M) 31.236ms
[2021-05-10T07:29:26.497+0000][gc,cpu        ] GC(6) User=0.02s Sys=0.00s Real=0.03s
[2021-05-10T07:29:26.497+0000][gc            ] GC(7) Concurrent Cycle
[2021-05-10T07:29:26.497+0000][gc,marking    ] GC(7) Concurrent Clear Claimed Marks
[2021-05-10T07:29:26.508+0000][gc,marking    ] GC(7) Concurrent Clear Claimed Marks 10.529ms
[2021-05-10T07:29:26.508+0000][gc,marking    ] GC(7) Concurrent Scan Root Regions
[2021-05-10T07:29:26.512+0000][gc,marking    ] GC(7) Concurrent Scan Root Regions 4.272ms
[2021-05-10T07:29:26.512+0000][gc,marking    ] GC(7) Concurrent Mark (109.718s)
[2021-05-10T07:29:26.512+0000][gc,marking    ] GC(7) Concurrent Mark From Roots
[2021-05-10T07:29:26.513+0000][gc,task       ] GC(7) Using 1 workers of 1 for marking
[2021-05-10T07:29:26.594+0000][gc,marking    ] GC(7) Concurrent Mark From Roots 82.278ms
[2021-05-10T07:29:26.594+0000][gc,marking    ] GC(7) Concurrent Preclean
[2021-05-10T07:29:26.594+0000][gc,marking    ] GC(7) Concurrent Preclean 0.080ms
[2021-05-10T07:29:26.594+0000][gc,marking    ] GC(7) Concurrent Mark (109.718s, 109.800s) 82.418ms
[2021-05-10T07:29:26.594+0000][gc,start      ] GC(7) Pause Remark
[2021-05-10T07:29:26.603+0000][gc,stringtable] GC(7) Cleaned string and symbol table, strings: 11719 processed, 4 removed, symbols: 88923 processed, 6 removed
[2021-05-10T07:29:26.603+0000][gc            ] GC(7) Pause Remark 145M->145M(1024M) 8.443ms
[2021-05-10T07:29:26.603+0000][gc,cpu        ] GC(7) User=0.01s Sys=0.00s Real=0.01s
[2021-05-10T07:29:26.603+0000][gc,marking    ] GC(7) Concurrent Rebuild Remembered Sets
[2021-05-10T07:29:26.613+0000][gc,marking    ] GC(7) Concurrent Rebuild Remembered Sets 9.786ms
[2021-05-10T07:29:26.613+0000][gc,start      ] GC(7) Pause Cleanup
[2021-05-10T07:29:26.613+0000][gc            ] GC(7) Pause Cleanup 145M->145M(1024M) 0.224ms
[2021-05-10T07:29:26.613+0000][gc,cpu        ] GC(7) User=0.00s Sys=0.00s Real=0.00s
[2021-05-10T07:29:26.613+0000][gc,marking    ] GC(7) Concurrent Cleanup for Next Mark
[2021-05-10T07:29:26.616+0000][gc,marking    ] GC(7) Concurrent Cleanup for Next Mark 3.104ms
[2021-05-10T07:29:26.616+0000][gc            ] GC(7) Concurrent Cycle 119.418ms
[2021-05-10T07:42:54.145+0000][gc,start      ] GC(8) Pause Young (Normal) (G1 Evacuation Pause)
[2021-05-10T07:42:54.153+0000][gc,task       ] GC(8) Using 2 workers of 2 for evacuation
[2021-05-10T07:42:54.169+0000][gc,phases     ] GC(8)   Pre Evacuate Collection Set: 0.0ms
[2021-05-10T07:42:54.169+0000][gc,phases     ] GC(8)   Evacuate Collection Set: 15.1ms
[2021-05-10T07:42:54.169+0000][gc,phases     ] GC(8)   Post Evacuate Collection Set: 0.5ms
[2021-05-10T07:42:54.169+0000][gc,phases     ] GC(8)   Other: 8.2ms
[2021-05-10T07:42:54.169+0000][gc,heap       ] GC(8) Eden regions: 46->0(46)
[2021-05-10T07:42:54.169+0000][gc,heap       ] GC(8) Survivor regions: 5->5(7)
[2021-05-10T07:42:54.169+0000][gc,heap       ] GC(8) Old regions: 13->15
[2021-05-10T07:42:54.169+0000][gc,heap       ] GC(8) Humongous regions: 129->129
[2021-05-10T07:42:54.169+0000][gc,metaspace  ] GC(8) Metaspace: 42923K->42923K(1087488K)
[2021-05-10T07:42:54.177+0000][gc            ] GC(8) Pause Young (Normal) (G1 Evacuation Pause) 190M->146M(1024M) 23.991ms
[2021-05-10T07:42:54.177+0000][gc,cpu        ] GC(8) User=0.03s Sys=0.00s Real=0.03s
[2021-05-10T07:58:01.537+0000][gc,start      ] GC(9) Pause Young (Normal) (G1 Evacuation Pause)
[2021-05-10T07:58:01.541+0000][gc,task       ] GC(9) Using 2 workers of 2 for evacuation
[2021-05-10T07:58:01.554+0000][gc,phases     ] GC(9)   Pre Evacuate Collection Set: 0.0ms
[2021-05-10T07:58:01.554+0000][gc,phases     ] GC(9)   Evacuate Collection Set: 12.8ms
[2021-05-10T07:58:01.554+0000][gc,phases     ] GC(9)   Post Evacuate Collection Set: 0.6ms
[2021-05-10T07:58:01.554+0000][gc,phases     ] GC(9)   Other: 3.6ms
[2021-05-10T07:58:01.554+0000][gc,heap       ] GC(9) Eden regions: 46->0(48)
[2021-05-10T07:58:01.554+0000][gc,heap       ] GC(9) Survivor regions: 5->3(7)
[2021-05-10T07:58:01.554+0000][gc,heap       ] GC(9) Old regions: 15->17
[2021-05-10T07:58:01.554+0000][gc,heap       ] GC(9) Humongous regions: 129->129
[2021-05-10T07:58:01.554+0000][gc,metaspace  ] GC(9) Metaspace: 43018K->43018K(1087488K)
[2021-05-10T07:58:01.574+0000][gc            ] GC(9) Pause Young (Normal) (G1 Evacuation Pause) 192M->147M(1024M) 17.585ms
[2021-05-10T07:58:01.574+0000][gc,cpu        ] GC(9) User=0.03s Sys=0.00s Real=0.04s
[2021-05-10T08:14:46.925+0000][gc,start      ] GC(10) Pause Young (Normal) (G1 Evacuation Pause)
[2021-05-10T08:14:46.926+0000][gc,task       ] GC(10) Using 2 workers of 2 for evacuation
[2021-05-10T08:14:46.934+0000][gc,phases     ] GC(10)   Pre Evacuate Collection Set: 0.0ms
[2021-05-10T08:14:46.934+0000][gc,phases     ] GC(10)   Evacuate Collection Set: 7.2ms
[2021-05-10T08:14:46.934+0000][gc,phases     ] GC(10)   Post Evacuate Collection Set: 0.5ms
[2021-05-10T08:14:46.934+0000][gc,phases     ] GC(10)   Other: 1.1ms
[2021-05-10T08:14:46.935+0000][gc,heap       ] GC(10) Eden regions: 48->0(48)
[2021-05-10T08:14:46.935+0000][gc,heap       ] GC(10) Survivor regions: 3->3(7)
[2021-05-10T08:14:46.935+0000][gc,heap       ] GC(10) Old regions: 17->17
[2021-05-10T08:14:46.935+0000][gc,heap       ] GC(10) Humongous regions: 129->129
[2021-05-10T08:14:46.935+0000][gc,metaspace  ] GC(10) Metaspace: 43085K->43085K(1087488K)
[2021-05-10T08:14:46.936+0000][gc            ] GC(10) Pause Young (Normal) (G1 Evacuation Pause) 195M->147M(1024M) 10.504ms
[2021-05-10T08:14:46.936+0000][gc,cpu        ] GC(10) User=0.01s Sys=0.00s Real=0.01s
