[2021-05-06T14:06:03.350+0000][gc,heap] Heap region size: 1M
[2021-05-06T14:06:03.361+0000][gc     ] Using G1
[2021-05-06T14:06:03.361+0000][gc,heap,coops] Heap address: 0x00000000c0000000, size: 1024 MB, Compressed Oops mode: 32-bit
[2021-05-06T14:06:03.361+0000][gc,cds       ] Mark closed archive regions in map: [0x00000000fff00000, 0x00000000fff6aff8]
[2021-05-06T14:06:03.361+0000][gc,cds       ] Mark open archive regions in map: [0x00000000ffe00000, 0x00000000ffe46ff8]
[2021-05-06T14:06:04.905+0000][gc,start     ] GC(0) Pause Young (Normal) (G1 Evacuation Pause)
[2021-05-06T14:06:04.905+0000][gc,task      ] GC(0) Using 2 workers of 2 for evacuation
[2021-05-06T14:06:04.938+0000][gc,mmu       ] GC(0) MMU target violated: 21.0ms (20.0ms/21.0ms)
[2021-05-06T14:06:04.939+0000][gc,phases    ] GC(0)   Pre Evacuate Collection Set: 0.0ms
[2021-05-06T14:06:04.939+0000][gc,phases    ] GC(0)   Evacuate Collection Set: 32.5ms
[2021-05-06T14:06:04.939+0000][gc,phases    ] GC(0)   Post Evacuate Collection Set: 0.6ms
[2021-05-06T14:06:04.939+0000][gc,phases    ] GC(0)   Other: 0.3ms
[2021-05-06T14:06:04.939+0000][gc,heap      ] GC(0) Eden regions: 51->0(44)
[2021-05-06T14:06:04.939+0000][gc,heap      ] GC(0) Survivor regions: 0->7(7)
[2021-05-06T14:06:04.939+0000][gc,heap      ] GC(0) Old regions: 2->2
[2021-05-06T14:06:04.939+0000][gc,heap      ] GC(0) Humongous regions: 0->0
[2021-05-06T14:06:04.939+0000][gc,metaspace ] GC(0) Metaspace: 16001K->16001K(1062912K)
[2021-05-06T14:06:04.939+0000][gc           ] GC(0) Pause Young (Normal) (G1 Evacuation Pause) 51M->7M(1024M) 33.452ms
[2021-05-06T14:06:04.939+0000][gc,cpu       ] GC(0) User=0.04s Sys=0.01s Real=0.03s
[2021-05-06T14:06:05.282+0000][gc,start     ] GC(1) Pause Young (Concurrent Start) (Metadata GC Threshold)
[2021-05-06T14:06:05.282+0000][gc,task      ] GC(1) Using 2 workers of 2 for evacuation
[2021-05-06T14:06:05.305+0000][gc,mmu       ] GC(1) MMU target violated: 21.0ms (20.0ms/21.0ms)
[2021-05-06T14:06:05.305+0000][gc,phases    ] GC(1)   Pre Evacuate Collection Set: 0.1ms
[2021-05-06T14:06:05.305+0000][gc,phases    ] GC(1)   Evacuate Collection Set: 22.5ms
[2021-05-06T14:06:05.305+0000][gc,phases    ] GC(1)   Post Evacuate Collection Set: 0.4ms
[2021-05-06T14:06:05.305+0000][gc,phases    ] GC(1)   Other: 0.3ms
[2021-05-06T14:06:05.305+0000][gc,heap      ] GC(1) Eden regions: 18->0(50)
[2021-05-06T14:06:05.305+0000][gc,heap      ] GC(1) Survivor regions: 7->1(7)
[2021-05-06T14:06:05.305+0000][gc,heap      ] GC(1) Old regions: 2->9
[2021-05-06T14:06:05.305+0000][gc,heap      ] GC(1) Humongous regions: 0->0
[2021-05-06T14:06:05.305+0000][gc,metaspace ] GC(1) Metaspace: 20498K->20498K(1067008K)
[2021-05-06T14:06:05.305+0000][gc           ] GC(1) Pause Young (Concurrent Start) (Metadata GC Threshold) 24M->8M(1024M) 23.375ms
[2021-05-06T14:06:05.305+0000][gc,cpu       ] GC(1) User=0.03s Sys=0.00s Real=0.02s
[2021-05-06T14:06:05.305+0000][gc           ] GC(2) Concurrent Cycle
[2021-05-06T14:06:05.305+0000][gc,marking   ] GC(2) Concurrent Clear Claimed Marks
[2021-05-06T14:06:05.305+0000][gc,marking   ] GC(2) Concurrent Clear Claimed Marks 0.053ms
[2021-05-06T14:06:05.305+0000][gc,marking   ] GC(2) Concurrent Scan Root Regions
[2021-05-06T14:06:05.306+0000][gc,marking   ] GC(2) Concurrent Scan Root Regions 1.102ms
[2021-05-06T14:06:05.306+0000][gc,marking   ] GC(2) Concurrent Mark (1.960s)
[2021-05-06T14:06:05.306+0000][gc,marking   ] GC(2) Concurrent Mark From Roots
[2021-05-06T14:06:05.306+0000][gc,task      ] GC(2) Using 1 workers of 1 for marking
[2021-05-06T14:06:05.331+0000][gc,marking   ] GC(2) Concurrent Mark From Roots 24.762ms
[2021-05-06T14:06:05.331+0000][gc,marking   ] GC(2) Concurrent Preclean
[2021-05-06T14:06:05.331+0000][gc,marking   ] GC(2) Concurrent Preclean 0.082ms
[2021-05-06T14:06:05.331+0000][gc,marking   ] GC(2) Concurrent Mark (1.960s, 1.985s) 24.918ms
[2021-05-06T14:06:05.331+0000][gc,start     ] GC(2) Pause Remark
[2021-05-06T14:06:05.335+0000][gc,stringtable] GC(2) Cleaned string and symbol table, strings: 5073 processed, 0 removed, symbols: 50708 processed, 59 removed
[2021-05-06T14:06:05.336+0000][gc            ] GC(2) Pause Remark 9M->9M(1024M) 4.560ms
[2021-05-06T14:06:05.336+0000][gc,cpu        ] GC(2) User=0.00s Sys=0.00s Real=0.00s
[2021-05-06T14:06:05.336+0000][gc,marking    ] GC(2) Concurrent Rebuild Remembered Sets
[2021-05-06T14:06:05.344+0000][gc,marking    ] GC(2) Concurrent Rebuild Remembered Sets 8.245ms
[2021-05-06T14:06:05.344+0000][gc,start      ] GC(2) Pause Cleanup
[2021-05-06T14:06:05.344+0000][gc            ] GC(2) Pause Cleanup 9M->9M(1024M) 0.250ms
[2021-05-06T14:06:05.344+0000][gc,cpu        ] GC(2) User=0.00s Sys=0.00s Real=0.00s
[2021-05-06T14:06:05.344+0000][gc,marking    ] GC(2) Concurrent Cleanup for Next Mark
[2021-05-06T14:06:05.360+0000][gc,marking    ] GC(2) Concurrent Cleanup for Next Mark 15.990ms
[2021-05-06T14:06:05.361+0000][gc            ] GC(2) Concurrent Cycle 55.566ms
[2021-05-06T14:06:06.348+0000][gc,start      ] GC(3) Pause Young (Normal) (G1 Evacuation Pause)
[2021-05-06T14:06:06.348+0000][gc,task       ] GC(3) Using 2 workers of 2 for evacuation
[2021-05-06T14:06:06.360+0000][gc,phases     ] GC(3)   Pre Evacuate Collection Set: 0.1ms
[2021-05-06T14:06:06.360+0000][gc,phases     ] GC(3)   Evacuate Collection Set: 10.6ms
[2021-05-06T14:06:06.360+0000][gc,phases     ] GC(3)   Post Evacuate Collection Set: 0.5ms
[2021-05-06T14:06:06.360+0000][gc,phases     ] GC(3)   Other: 0.2ms
[2021-05-06T14:06:06.360+0000][gc,heap       ] GC(3) Eden regions: 50->0(46)
[2021-05-06T14:06:06.360+0000][gc,heap       ] GC(3) Survivor regions: 1->5(7)
[2021-05-06T14:06:06.360+0000][gc,heap       ] GC(3) Old regions: 9->9
[2021-05-06T14:06:06.360+0000][gc,heap       ] GC(3) Humongous regions: 129->129
[2021-05-06T14:06:06.360+0000][gc,metaspace  ] GC(3) Metaspace: 30049K->30049K(1077248K)
[2021-05-06T14:06:06.360+0000][gc            ] GC(3) Pause Young (Normal) (G1 Evacuation Pause) 187M->141M(1024M) 11.459ms
[2021-05-06T14:06:06.360+0000][gc,cpu        ] GC(3) User=0.02s Sys=0.00s Real=0.01s
[2021-05-06T14:06:06.847+0000][gc,start      ] GC(4) Pause Young (Concurrent Start) (Metadata GC Threshold)
[2021-05-06T14:06:06.847+0000][gc,task       ] GC(4) Using 2 workers of 2 for evacuation
[2021-05-06T14:06:06.870+0000][gc,mmu        ] GC(4) MMU target violated: 21.0ms (20.0ms/21.0ms)
[2021-05-06T14:06:06.870+0000][gc,phases     ] GC(4)   Pre Evacuate Collection Set: 0.1ms
[2021-05-06T14:06:06.870+0000][gc,phases     ] GC(4)   Evacuate Collection Set: 22.0ms
[2021-05-06T14:06:06.870+0000][gc,phases     ] GC(4)   Post Evacuate Collection Set: 0.5ms
[2021-05-06T14:06:06.870+0000][gc,phases     ] GC(4)   Other: 0.3ms
[2021-05-06T14:06:06.870+0000][gc,heap       ] GC(4) Eden regions: 21->0(49)
[2021-05-06T14:06:06.870+0000][gc,heap       ] GC(4) Survivor regions: 5->2(7)
[2021-05-06T14:06:06.870+0000][gc,heap       ] GC(4) Old regions: 9->13
[2021-05-06T14:06:06.870+0000][gc,heap       ] GC(4) Humongous regions: 129->129
[2021-05-06T14:06:06.870+0000][gc,metaspace  ] GC(4) Metaspace: 34596K->34596K(1081344K)
[2021-05-06T14:06:06.870+0000][gc            ] GC(4) Pause Young (Concurrent Start) (Metadata GC Threshold) 162M->142M(1024M) 22.940ms
[2021-05-06T14:06:06.870+0000][gc,cpu        ] GC(4) User=0.02s Sys=0.00s Real=0.03s
[2021-05-06T14:06:06.870+0000][gc            ] GC(5) Concurrent Cycle
[2021-05-06T14:06:06.870+0000][gc,marking    ] GC(5) Concurrent Clear Claimed Marks
[2021-05-06T14:06:06.870+0000][gc,marking    ] GC(5) Concurrent Clear Claimed Marks 0.082ms
[2021-05-06T14:06:06.870+0000][gc,marking    ] GC(5) Concurrent Scan Root Regions
[2021-05-06T14:06:06.872+0000][gc,marking    ] GC(5) Concurrent Scan Root Regions 2.056ms
[2021-05-06T14:06:06.872+0000][gc,marking    ] GC(5) Concurrent Mark (3.526s)
[2021-05-06T14:06:06.872+0000][gc,marking    ] GC(5) Concurrent Mark From Roots
[2021-05-06T14:06:06.872+0000][gc,task       ] GC(5) Using 1 workers of 1 for marking
[2021-05-06T14:06:06.914+0000][gc,marking    ] GC(5) Concurrent Mark From Roots 41.635ms
[2021-05-06T14:06:06.914+0000][gc,marking    ] GC(5) Concurrent Preclean
[2021-05-06T14:06:06.914+0000][gc,marking    ] GC(5) Concurrent Preclean 0.359ms
[2021-05-06T14:06:06.914+0000][gc,marking    ] GC(5) Concurrent Mark (3.526s, 3.568s) 42.055ms
[2021-05-06T14:06:06.915+0000][gc,start      ] GC(5) Pause Remark
[2021-05-06T14:06:06.921+0000][gc,stringtable] GC(5) Cleaned string and symbol table, strings: 10390 processed, 13 removed, symbols: 82321 processed, 19 removed
[2021-05-06T14:06:06.921+0000][gc            ] GC(5) Pause Remark 144M->144M(1024M) 6.211ms
[2021-05-06T14:06:06.921+0000][gc,cpu        ] GC(5) User=0.01s Sys=0.00s Real=0.01s
[2021-05-06T14:06:06.921+0000][gc,marking    ] GC(5) Concurrent Rebuild Remembered Sets
[2021-05-06T14:06:06.967+0000][gc,marking    ] GC(5) Concurrent Rebuild Remembered Sets 45.454ms
[2021-05-06T14:06:06.967+0000][gc,start      ] GC(5) Pause Cleanup
[2021-05-06T14:06:06.968+0000][gc            ] GC(5) Pause Cleanup 145M->145M(1024M) 0.267ms
[2021-05-06T14:06:06.968+0000][gc,cpu        ] GC(5) User=0.00s Sys=0.00s Real=0.00s
[2021-05-06T14:06:06.968+0000][gc,marking    ] GC(5) Concurrent Cleanup for Next Mark
[2021-05-06T14:06:06.996+0000][gc,marking    ] GC(5) Concurrent Cleanup for Next Mark 28.326ms
[2021-05-06T14:06:06.996+0000][gc            ] GC(5) Concurrent Cycle 126.268ms
[2021-05-06T14:14:58.758+0000][gc,start      ] GC(6) Pause Young (Concurrent Start) (G1 Evacuation Pause)
[2021-05-06T14:14:58.758+0000][gc,task       ] GC(6) Using 2 workers of 2 for evacuation
[2021-05-06T14:14:58.814+0000][gc,mmu        ] GC(6) MMU target violated: 21.0ms (20.0ms/21.0ms)
[2021-05-06T14:14:58.814+0000][gc,phases     ] GC(6)   Pre Evacuate Collection Set: 0.3ms
[2021-05-06T14:14:58.814+0000][gc,phases     ] GC(6)   Evacuate Collection Set: 54.0ms
[2021-05-06T14:14:58.814+0000][gc,phases     ] GC(6)   Post Evacuate Collection Set: 1.3ms
[2021-05-06T14:14:58.814+0000][gc,phases     ] GC(6)   Other: 0.4ms
[2021-05-06T14:14:58.814+0000][gc,heap       ] GC(6) Eden regions: 49->0(47)
[2021-05-06T14:14:58.814+0000][gc,heap       ] GC(6) Survivor regions: 2->4(7)
[2021-05-06T14:14:58.814+0000][gc,heap       ] GC(6) Old regions: 13->13
[2021-05-06T14:14:58.814+0000][gc,heap       ] GC(6) Humongous regions: 129->129
[2021-05-06T14:14:58.814+0000][gc,metaspace  ] GC(6) Metaspace: 41471K->41471K(1087488K)
[2021-05-06T14:14:58.814+0000][gc            ] GC(6) Pause Young (Concurrent Start) (G1 Evacuation Pause) 191M->144M(1024M) 56.056ms
[2021-05-06T14:14:58.814+0000][gc,cpu        ] GC(6) User=0.02s Sys=0.00s Real=0.06s
[2021-05-06T14:14:58.814+0000][gc            ] GC(7) Concurrent Cycle
[2021-05-06T14:14:58.814+0000][gc,marking    ] GC(7) Concurrent Clear Claimed Marks
[2021-05-06T14:14:58.814+0000][gc,marking    ] GC(7) Concurrent Clear Claimed Marks 0.234ms
[2021-05-06T14:14:58.814+0000][gc,marking    ] GC(7) Concurrent Scan Root Regions
[2021-05-06T14:14:58.821+0000][gc,marking    ] GC(7) Concurrent Scan Root Regions 7.063ms
[2021-05-06T14:14:58.821+0000][gc,marking    ] GC(7) Concurrent Mark (535.475s)
[2021-05-06T14:14:58.821+0000][gc,marking    ] GC(7) Concurrent Mark From Roots
[2021-05-06T14:14:58.821+0000][gc,task       ] GC(7) Using 1 workers of 1 for marking
[2021-05-06T14:14:58.934+0000][gc,marking    ] GC(7) Concurrent Mark From Roots 112.841ms
[2021-05-06T14:14:58.934+0000][gc,marking    ] GC(7) Concurrent Preclean
[2021-05-06T14:14:58.934+0000][gc,marking    ] GC(7) Concurrent Preclean 0.124ms
[2021-05-06T14:14:58.934+0000][gc,marking    ] GC(7) Concurrent Mark (535.475s, 535.588s) 113.038ms
[2021-05-06T14:14:58.935+0000][gc,start      ] GC(7) Pause Remark
[2021-05-06T14:14:58.958+0000][gc,stringtable] GC(7) Cleaned string and symbol table, strings: 11748 processed, 3 removed, symbols: 88862 processed, 6 removed
[2021-05-06T14:14:58.958+0000][gc,mmu        ] GC(7) MMU target violated: 21.0ms (20.0ms/21.0ms)
[2021-05-06T14:14:58.958+0000][gc            ] GC(7) Pause Remark 145M->145M(1024M) 23.582ms
[2021-05-06T14:14:58.958+0000][gc,cpu        ] GC(7) User=0.02s Sys=0.00s Real=0.02s
[2021-05-06T14:14:58.958+0000][gc,marking    ] GC(7) Concurrent Rebuild Remembered Sets
[2021-05-06T14:14:58.988+0000][gc,marking    ] GC(7) Concurrent Rebuild Remembered Sets 29.965ms
[2021-05-06T14:14:58.988+0000][gc,start      ] GC(7) Pause Cleanup
[2021-05-06T14:14:58.989+0000][gc            ] GC(7) Pause Cleanup 145M->145M(1024M) 0.202ms
[2021-05-06T14:14:58.989+0000][gc,cpu        ] GC(7) User=0.00s Sys=0.00s Real=0.00s
[2021-05-06T14:14:58.989+0000][gc,marking    ] GC(7) Concurrent Cleanup for Next Mark
[2021-05-06T14:14:58.994+0000][gc,marking    ] GC(7) Concurrent Cleanup for Next Mark 5.193ms
[2021-05-06T14:14:58.994+0000][gc            ] GC(7) Concurrent Cycle 180.000ms
[2021-05-06T14:28:54.060+0000][gc,start      ] GC(8) Pause Young (Normal) (G1 Evacuation Pause)
[2021-05-06T14:28:54.061+0000][gc,task       ] GC(8) Using 2 workers of 2 for evacuation
[2021-05-06T14:28:54.075+0000][gc,phases     ] GC(8)   Pre Evacuate Collection Set: 0.0ms
[2021-05-06T14:28:54.075+0000][gc,phases     ] GC(8)   Evacuate Collection Set: 13.9ms
[2021-05-06T14:28:54.075+0000][gc,phases     ] GC(8)   Post Evacuate Collection Set: 0.7ms
[2021-05-06T14:28:54.075+0000][gc,phases     ] GC(8)   Other: 0.7ms
[2021-05-06T14:28:54.075+0000][gc,heap       ] GC(8) Eden regions: 47->0(45)
[2021-05-06T14:28:54.075+0000][gc,heap       ] GC(8) Survivor regions: 4->6(7)
[2021-05-06T14:28:54.075+0000][gc,heap       ] GC(8) Old regions: 13->15
[2021-05-06T14:28:54.076+0000][gc,heap       ] GC(8) Humongous regions: 129->129
[2021-05-06T14:28:54.076+0000][gc,metaspace  ] GC(8) Metaspace: 42734K->42734K(1087488K)
[2021-05-06T14:28:54.076+0000][gc            ] GC(8) Pause Young (Normal) (G1 Evacuation Pause) 191M->147M(1024M) 15.462ms
[2021-05-06T14:28:54.076+0000][gc,cpu        ] GC(8) User=0.03s Sys=0.00s Real=0.01s
[2021-05-06T14:43:24.061+0000][gc,start      ] GC(9) Pause Young (Normal) (G1 Evacuation Pause)
[2021-05-06T14:43:24.061+0000][gc,task       ] GC(9) Using 2 workers of 2 for evacuation
[2021-05-06T14:43:24.074+0000][gc,phases     ] GC(9)   Pre Evacuate Collection Set: 0.0ms
[2021-05-06T14:43:24.074+0000][gc,phases     ] GC(9)   Evacuate Collection Set: 12.1ms
[2021-05-06T14:43:24.074+0000][gc,phases     ] GC(9)   Post Evacuate Collection Set: 0.5ms
[2021-05-06T14:43:24.074+0000][gc,phases     ] GC(9)   Other: 0.2ms
[2021-05-06T14:43:24.074+0000][gc,heap       ] GC(9) Eden regions: 45->0(48)
[2021-05-06T14:43:24.074+0000][gc,heap       ] GC(9) Survivor regions: 6->3(7)
[2021-05-06T14:43:24.074+0000][gc,heap       ] GC(9) Old regions: 15->17
[2021-05-06T14:43:24.074+0000][gc,heap       ] GC(9) Humongous regions: 129->129
[2021-05-06T14:43:24.074+0000][gc,metaspace  ] GC(9) Metaspace: 42834K->42834K(1087488K)
[2021-05-06T14:43:24.074+0000][gc            ] GC(9) Pause Young (Normal) (G1 Evacuation Pause) 192M->147M(1024M) 13.011ms
[2021-05-06T14:43:24.074+0000][gc,cpu        ] GC(9) User=0.03s Sys=0.00s Real=0.01s
[2021-05-06T14:59:50.864+0000][gc,start      ] GC(10) Pause Young (Normal) (G1 Evacuation Pause)
[2021-05-06T14:59:50.865+0000][gc,task       ] GC(10) Using 2 workers of 2 for evacuation
[2021-05-06T14:59:50.872+0000][gc,phases     ] GC(10)   Pre Evacuate Collection Set: 0.0ms
[2021-05-06T14:59:50.872+0000][gc,phases     ] GC(10)   Evacuate Collection Set: 6.5ms
[2021-05-06T14:59:50.872+0000][gc,phases     ] GC(10)   Post Evacuate Collection Set: 0.5ms
[2021-05-06T14:59:50.872+0000][gc,phases     ] GC(10)   Other: 0.7ms
[2021-05-06T14:59:50.872+0000][gc,heap       ] GC(10) Eden regions: 48->0(48)
[2021-05-06T14:59:50.872+0000][gc,heap       ] GC(10) Survivor regions: 3->3(7)
[2021-05-06T14:59:50.872+0000][gc,heap       ] GC(10) Old regions: 17->17
[2021-05-06T14:59:50.872+0000][gc,heap       ] GC(10) Humongous regions: 129->129
[2021-05-06T14:59:50.872+0000][gc,metaspace  ] GC(10) Metaspace: 42916K->42916K(1087488K)
[2021-05-06T14:59:50.872+0000][gc            ] GC(10) Pause Young (Normal) (G1 Evacuation Pause) 195M->147M(1024M) 7.885ms
[2021-05-06T14:59:50.872+0000][gc,cpu        ] GC(10) User=0.01s Sys=0.00s Real=0.01s
[2021-05-06T15:16:11.271+0000][gc,start      ] GC(11) Pause Young (Normal) (G1 Evacuation Pause)
[2021-05-06T15:16:11.279+0000][gc,task       ] GC(11) Using 2 workers of 2 for evacuation
[2021-05-06T15:16:11.287+0000][gc,phases     ] GC(11)   Pre Evacuate Collection Set: 0.0ms
[2021-05-06T15:16:11.287+0000][gc,phases     ] GC(11)   Evacuate Collection Set: 7.2ms
[2021-05-06T15:16:11.287+0000][gc,phases     ] GC(11)   Post Evacuate Collection Set: 0.5ms
[2021-05-06T15:16:11.287+0000][gc,phases     ] GC(11)   Other: 8.2ms
[2021-05-06T15:16:11.287+0000][gc,heap       ] GC(11) Eden regions: 48->0(48)
[2021-05-06T15:16:11.287+0000][gc,heap       ] GC(11) Survivor regions: 3->3(7)
[2021-05-06T15:16:11.287+0000][gc,heap       ] GC(11) Old regions: 17->17
[2021-05-06T15:16:11.287+0000][gc,heap       ] GC(11) Humongous regions: 129->129
[2021-05-06T15:16:11.287+0000][gc,metaspace  ] GC(11) Metaspace: 43031K->43031K(1087488K)
[2021-05-06T15:16:11.287+0000][gc            ] GC(11) Pause Young (Normal) (G1 Evacuation Pause) 195M->147M(1024M) 16.093ms
[2021-05-06T15:16:11.287+0000][gc,cpu        ] GC(11) User=0.01s Sys=0.00s Real=0.02s
[2021-05-06T15:37:32.591+0000][gc,start      ] GC(12) Pause Young (Normal) (G1 Evacuation Pause)
[2021-05-06T15:37:32.591+0000][gc,task       ] GC(12) Using 2 workers of 2 for evacuation
[2021-05-06T15:37:32.602+0000][gc,phases     ] GC(12)   Pre Evacuate Collection Set: 0.0ms
[2021-05-06T15:37:32.602+0000][gc,phases     ] GC(12)   Evacuate Collection Set: 9.9ms
[2021-05-06T15:37:32.602+0000][gc,phases     ] GC(12)   Post Evacuate Collection Set: 0.4ms
[2021-05-06T15:37:32.602+0000][gc,phases     ] GC(12)   Other: 0.2ms
[2021-05-06T15:37:32.602+0000][gc,heap       ] GC(12) Eden regions: 48->0(47)
[2021-05-06T15:37:32.602+0000][gc,heap       ] GC(12) Survivor regions: 3->4(7)
[2021-05-06T15:37:32.602+0000][gc,heap       ] GC(12) Old regions: 17->17
[2021-05-06T15:37:32.602+0000][gc,heap       ] GC(12) Humongous regions: 129->129
[2021-05-06T15:37:32.602+0000][gc,metaspace  ] GC(12) Metaspace: 43188K->43188K(1087488K)
[2021-05-06T15:37:32.602+0000][gc            ] GC(12) Pause Young (Normal) (G1 Evacuation Pause) 195M->148M(1024M) 10.603ms
[2021-05-06T15:37:32.602+0000][gc,cpu        ] GC(12) User=0.02s Sys=0.00s Real=0.01s
[2021-05-06T15:54:08.465+0000][gc,start      ] GC(13) Pause Young (Normal) (G1 Evacuation Pause)
[2021-05-06T15:54:08.465+0000][gc,task       ] GC(13) Using 2 workers of 2 for evacuation
[2021-05-06T15:54:08.476+0000][gc,phases     ] GC(13)   Pre Evacuate Collection Set: 0.0ms
[2021-05-06T15:54:08.476+0000][gc,phases     ] GC(13)   Evacuate Collection Set: 9.7ms
[2021-05-06T15:54:08.476+0000][gc,phases     ] GC(13)   Post Evacuate Collection Set: 0.5ms
[2021-05-06T15:54:08.476+0000][gc,phases     ] GC(13)   Other: 0.2ms
[2021-05-06T15:54:08.476+0000][gc,heap       ] GC(13) Eden regions: 47->0(47)
[2021-05-06T15:54:08.476+0000][gc,heap       ] GC(13) Survivor regions: 4->4(7)
[2021-05-06T15:54:08.476+0000][gc,heap       ] GC(13) Old regions: 17->18
[2021-05-06T15:54:08.476+0000][gc,heap       ] GC(13) Humongous regions: 129->129
[2021-05-06T15:54:08.476+0000][gc,metaspace  ] GC(13) Metaspace: 43206K->43206K(1087488K)
[2021-05-06T15:54:08.476+0000][gc            ] GC(13) Pause Young (Normal) (G1 Evacuation Pause) 195M->148M(1024M) 10.567ms
[2021-05-06T15:54:08.476+0000][gc,cpu        ] GC(13) User=0.02s Sys=0.00s Real=0.01s
[2021-05-06T16:09:46.211+0000][gc,start      ] GC(14) Pause Young (Normal) (G1 Evacuation Pause)
[2021-05-06T16:09:46.211+0000][gc,task       ] GC(14) Using 2 workers of 2 for evacuation
[2021-05-06T16:09:46.219+0000][gc,phases     ] GC(14)   Pre Evacuate Collection Set: 0.0ms
[2021-05-06T16:09:46.219+0000][gc,phases     ] GC(14)   Evacuate Collection Set: 7.0ms
[2021-05-06T16:09:46.219+0000][gc,phases     ] GC(14)   Post Evacuate Collection Set: 0.5ms
[2021-05-06T16:09:46.219+0000][gc,phases     ] GC(14)   Other: 0.2ms
[2021-05-06T16:09:46.219+0000][gc,heap       ] GC(14) Eden regions: 47->0(47)
[2021-05-06T16:09:46.219+0000][gc,heap       ] GC(14) Survivor regions: 4->4(7)
[2021-05-06T16:09:46.219+0000][gc,heap       ] GC(14) Old regions: 18->18
[2021-05-06T16:09:46.219+0000][gc,heap       ] GC(14) Humongous regions: 129->129
[2021-05-06T16:09:46.219+0000][gc,metaspace  ] GC(14) Metaspace: 43231K->43231K(1087488K)
[2021-05-06T16:09:46.219+0000][gc            ] GC(14) Pause Young (Normal) (G1 Evacuation Pause) 195M->148M(1024M) 7.896ms
[2021-05-06T16:09:46.219+0000][gc,cpu        ] GC(14) User=0.01s Sys=0.00s Real=0.01s
[2021-05-06T16:26:35.444+0000][gc,start      ] GC(15) Pause Young (Normal) (G1 Evacuation Pause)
[2021-05-06T16:26:35.444+0000][gc,task       ] GC(15) Using 2 workers of 2 for evacuation
[2021-05-06T16:26:35.453+0000][gc,phases     ] GC(15)   Pre Evacuate Collection Set: 0.0ms
[2021-05-06T16:26:35.453+0000][gc,phases     ] GC(15)   Evacuate Collection Set: 7.8ms
[2021-05-06T16:26:35.453+0000][gc,phases     ] GC(15)   Post Evacuate Collection Set: 0.4ms
[2021-05-06T16:26:35.453+0000][gc,phases     ] GC(15)   Other: 0.7ms
[2021-05-06T16:26:35.453+0000][gc,heap       ] GC(15) Eden regions: 47->0(47)
[2021-05-06T16:26:35.453+0000][gc,heap       ] GC(15) Survivor regions: 4->4(7)
[2021-05-06T16:26:35.453+0000][gc,heap       ] GC(15) Old regions: 18->18
[2021-05-06T16:26:35.453+0000][gc,heap       ] GC(15) Humongous regions: 129->129
[2021-05-06T16:26:35.453+0000][gc,metaspace  ] GC(15) Metaspace: 43252K->43252K(1087488K)
[2021-05-06T16:26:35.453+0000][gc            ] GC(15) Pause Young (Normal) (G1 Evacuation Pause) 195M->148M(1024M) 9.008ms
[2021-05-06T16:26:35.453+0000][gc,cpu        ] GC(15) User=0.01s Sys=0.00s Real=0.01s
[2021-05-06T16:43:24.154+0000][gc,start      ] GC(16) Pause Young (Normal) (G1 Evacuation Pause)
[2021-05-06T16:43:24.154+0000][gc,task       ] GC(16) Using 2 workers of 2 for evacuation
[2021-05-06T16:43:24.163+0000][gc,phases     ] GC(16)   Pre Evacuate Collection Set: 0.1ms
[2021-05-06T16:43:24.163+0000][gc,phases     ] GC(16)   Evacuate Collection Set: 7.6ms
[2021-05-06T16:43:24.163+0000][gc,phases     ] GC(16)   Post Evacuate Collection Set: 0.4ms
[2021-05-06T16:43:24.163+0000][gc,phases     ] GC(16)   Other: 0.6ms
[2021-05-06T16:43:24.163+0000][gc,heap       ] GC(16) Eden regions: 47->0(49)
[2021-05-06T16:43:24.163+0000][gc,heap       ] GC(16) Survivor regions: 4->4(7)
[2021-05-06T16:43:24.163+0000][gc,heap       ] GC(16) Old regions: 18->18
[2021-05-06T16:43:24.163+0000][gc,heap       ] GC(16) Humongous regions: 129->129
[2021-05-06T16:43:24.163+0000][gc,metaspace  ] GC(16) Metaspace: 43254K->43254K(1087488K)
[2021-05-06T16:43:24.163+0000][gc            ] GC(16) Pause Young (Normal) (G1 Evacuation Pause) 195M->148M(1024M) 8.836ms
[2021-05-06T16:43:24.163+0000][gc,cpu        ] GC(16) User=0.02s Sys=0.00s Real=0.01s
[2021-05-06T17:06:56.662+0000][gc,start      ] GC(17) Pause Young (Normal) (G1 Evacuation Pause)
[2021-05-06T17:06:56.662+0000][gc,task       ] GC(17) Using 2 workers of 2 for evacuation
[2021-05-06T17:06:56.672+0000][gc,phases     ] GC(17)   Pre Evacuate Collection Set: 0.0ms
[2021-05-06T17:06:56.672+0000][gc,phases     ] GC(17)   Evacuate Collection Set: 9.4ms
[2021-05-06T17:06:56.672+0000][gc,phases     ] GC(17)   Post Evacuate Collection Set: 0.4ms
[2021-05-06T17:06:56.672+0000][gc,phases     ] GC(17)   Other: 0.2ms
[2021-05-06T17:06:56.672+0000][gc,heap       ] GC(17) Eden regions: 49->0(52)
[2021-05-06T17:06:56.672+0000][gc,heap       ] GC(17) Survivor regions: 4->4(7)
[2021-05-06T17:06:56.672+0000][gc,heap       ] GC(17) Old regions: 18->18
[2021-05-06T17:06:56.672+0000][gc,heap       ] GC(17) Humongous regions: 129->129
[2021-05-06T17:06:56.672+0000][gc,metaspace  ] GC(17) Metaspace: 43471K->43471K(1089536K)
[2021-05-06T17:06:56.672+0000][gc            ] GC(17) Pause Young (Normal) (G1 Evacuation Pause) 197M->148M(1024M) 10.476ms
[2021-05-06T17:06:56.673+0000][gc,cpu        ] GC(17) User=0.02s Sys=0.00s Real=0.01s
[2021-05-06T17:37:39.060+0000][gc,start      ] GC(18) Pause Young (Normal) (G1 Evacuation Pause)
[2021-05-06T17:37:39.060+0000][gc,task       ] GC(18) Using 2 workers of 2 for evacuation
[2021-05-06T17:37:39.076+0000][gc,phases     ] GC(18)   Pre Evacuate Collection Set: 0.0ms
[2021-05-06T17:37:39.076+0000][gc,phases     ] GC(18)   Evacuate Collection Set: 13.5ms
[2021-05-06T17:37:39.076+0000][gc,phases     ] GC(18)   Post Evacuate Collection Set: 1.6ms
[2021-05-06T17:37:39.076+0000][gc,phases     ] GC(18)   Other: 0.4ms
[2021-05-06T17:37:39.076+0000][gc,heap       ] GC(18) Eden regions: 52->0(51)
[2021-05-06T17:37:39.076+0000][gc,heap       ] GC(18) Survivor regions: 4->4(7)
[2021-05-06T17:37:39.076+0000][gc,heap       ] GC(18) Old regions: 18->18
[2021-05-06T17:37:39.076+0000][gc,heap       ] GC(18) Humongous regions: 129->129
[2021-05-06T17:37:39.076+0000][gc,metaspace  ] GC(18) Metaspace: 43496K->43496K(1089536K)
[2021-05-06T17:37:39.076+0000][gc            ] GC(18) Pause Young (Normal) (G1 Evacuation Pause) 200M->148M(1024M) 15.564ms
[2021-05-06T17:37:39.076+0000][gc,cpu        ] GC(18) User=0.03s Sys=0.00s Real=0.01s
