[2021-05-07T10:50:19.121+0000][gc,heap] Heap region size: 1M
[2021-05-07T10:50:19.132+0000][gc     ] Using G1
[2021-05-07T10:50:19.132+0000][gc,heap,coops] Heap address: 0x00000000c0000000, size: 1024 MB, Compressed Oops mode: 32-bit
[2021-05-07T10:50:19.132+0000][gc,cds       ] Mark closed archive regions in map: [0x00000000fff00000, 0x00000000fff6aff8]
[2021-05-07T10:50:19.132+0000][gc,cds       ] Mark open archive regions in map: [0x00000000ffe00000, 0x00000000ffe46ff8]
[2021-05-07T10:50:22.885+0000][gc,start     ] GC(0) Pause Young (Normal) (G1 Evacuation Pause)
[2021-05-07T10:50:22.885+0000][gc,task      ] GC(0) Using 2 workers of 2 for evacuation
[2021-05-07T10:50:22.920+0000][gc,mmu       ] GC(0) MMU target violated: 21.0ms (20.0ms/21.0ms)
[2021-05-07T10:50:22.920+0000][gc,phases    ] GC(0)   Pre Evacuate Collection Set: 0.0ms
[2021-05-07T10:50:22.920+0000][gc,phases    ] GC(0)   Evacuate Collection Set: 31.7ms
[2021-05-07T10:50:22.920+0000][gc,phases    ] GC(0)   Post Evacuate Collection Set: 2.9ms
[2021-05-07T10:50:22.920+0000][gc,phases    ] GC(0)   Other: 0.3ms
[2021-05-07T10:50:22.920+0000][gc,heap      ] GC(0) Eden regions: 51->0(44)
[2021-05-07T10:50:22.920+0000][gc,heap      ] GC(0) Survivor regions: 0->7(7)
[2021-05-07T10:50:22.920+0000][gc,heap      ] GC(0) Old regions: 2->2
[2021-05-07T10:50:22.920+0000][gc,heap      ] GC(0) Humongous regions: 0->0
[2021-05-07T10:50:22.920+0000][gc,metaspace ] GC(0) Metaspace: 15786K->15786K(1062912K)
[2021-05-07T10:50:22.920+0000][gc           ] GC(0) Pause Young (Normal) (G1 Evacuation Pause) 51M->7M(1024M) 35.049ms
[2021-05-07T10:50:22.920+0000][gc,cpu       ] GC(0) User=0.04s Sys=0.00s Real=0.03s
[2021-05-07T10:50:24.482+0000][gc,start     ] GC(1) Pause Young (Concurrent Start) (Metadata GC Threshold)
[2021-05-07T10:50:24.482+0000][gc,task      ] GC(1) Using 2 workers of 2 for evacuation
[2021-05-07T10:50:24.501+0000][gc,phases    ] GC(1)   Pre Evacuate Collection Set: 0.1ms
[2021-05-07T10:50:24.501+0000][gc,phases    ] GC(1)   Evacuate Collection Set: 18.9ms
[2021-05-07T10:50:24.501+0000][gc,phases    ] GC(1)   Post Evacuate Collection Set: 0.4ms
[2021-05-07T10:50:24.501+0000][gc,phases    ] GC(1)   Other: 0.3ms
[2021-05-07T10:50:24.501+0000][gc,heap      ] GC(1) Eden regions: 19->0(50)
[2021-05-07T10:50:24.501+0000][gc,heap      ] GC(1) Survivor regions: 7->1(7)
[2021-05-07T10:50:24.501+0000][gc,heap      ] GC(1) Old regions: 2->9
[2021-05-07T10:50:24.501+0000][gc,heap      ] GC(1) Humongous regions: 0->0
[2021-05-07T10:50:24.501+0000][gc,metaspace ] GC(1) Metaspace: 20494K->20494K(1067008K)
[2021-05-07T10:50:24.501+0000][gc           ] GC(1) Pause Young (Concurrent Start) (Metadata GC Threshold) 26M->8M(1024M) 19.720ms
[2021-05-07T10:50:24.501+0000][gc,cpu       ] GC(1) User=0.02s Sys=0.01s Real=0.02s
[2021-05-07T10:50:24.501+0000][gc           ] GC(2) Concurrent Cycle
[2021-05-07T10:50:24.502+0000][gc,marking   ] GC(2) Concurrent Clear Claimed Marks
[2021-05-07T10:50:24.502+0000][gc,marking   ] GC(2) Concurrent Clear Claimed Marks 0.056ms
[2021-05-07T10:50:24.502+0000][gc,marking   ] GC(2) Concurrent Scan Root Regions
[2021-05-07T10:50:24.503+0000][gc,marking   ] GC(2) Concurrent Scan Root Regions 1.134ms
[2021-05-07T10:50:24.503+0000][gc,marking   ] GC(2) Concurrent Mark (5.386s)
[2021-05-07T10:50:24.503+0000][gc,marking   ] GC(2) Concurrent Mark From Roots
[2021-05-07T10:50:24.503+0000][gc,task      ] GC(2) Using 1 workers of 1 for marking
[2021-05-07T10:50:24.514+0000][gc,marking   ] GC(2) Concurrent Mark From Roots 11.607ms
[2021-05-07T10:50:24.514+0000][gc,marking   ] GC(2) Concurrent Preclean
[2021-05-07T10:50:24.514+0000][gc,marking   ] GC(2) Concurrent Preclean 0.096ms
[2021-05-07T10:50:24.514+0000][gc,marking   ] GC(2) Concurrent Mark (5.386s, 5.397s) 11.758ms
[2021-05-07T10:50:24.515+0000][gc,start     ] GC(2) Pause Remark
[2021-05-07T10:50:24.518+0000][gc,stringtable] GC(2) Cleaned string and symbol table, strings: 6361 processed, 0 removed, symbols: 51885 processed, 59 removed
[2021-05-07T10:50:24.519+0000][gc            ] GC(2) Pause Remark 8M->8M(1024M) 4.134ms
[2021-05-07T10:50:24.519+0000][gc,cpu        ] GC(2) User=0.00s Sys=0.00s Real=0.01s
[2021-05-07T10:50:24.519+0000][gc,marking    ] GC(2) Concurrent Rebuild Remembered Sets
[2021-05-07T10:50:24.524+0000][gc,marking    ] GC(2) Concurrent Rebuild Remembered Sets 5.599ms
[2021-05-07T10:50:24.527+0000][gc,start      ] GC(2) Pause Cleanup
[2021-05-07T10:50:24.527+0000][gc            ] GC(2) Pause Cleanup 8M->8M(1024M) 0.233ms
[2021-05-07T10:50:24.527+0000][gc,cpu        ] GC(2) User=0.00s Sys=0.00s Real=0.00s
[2021-05-07T10:50:24.527+0000][gc,marking    ] GC(2) Concurrent Cleanup for Next Mark
[2021-05-07T10:50:24.537+0000][gc,marking    ] GC(2) Concurrent Cleanup for Next Mark 10.627ms
[2021-05-07T10:50:24.537+0000][gc            ] GC(2) Concurrent Cycle 36.019ms
[2021-05-07T10:50:27.591+0000][gc,start      ] GC(3) Pause Young (Normal) (G1 Evacuation Pause)
[2021-05-07T10:50:27.591+0000][gc,task       ] GC(3) Using 2 workers of 2 for evacuation
[2021-05-07T10:50:27.603+0000][gc,phases     ] GC(3)   Pre Evacuate Collection Set: 0.0ms
[2021-05-07T10:50:27.603+0000][gc,phases     ] GC(3)   Evacuate Collection Set: 11.3ms
[2021-05-07T10:50:27.603+0000][gc,phases     ] GC(3)   Post Evacuate Collection Set: 0.4ms
[2021-05-07T10:50:27.603+0000][gc,phases     ] GC(3)   Other: 0.2ms
[2021-05-07T10:50:27.603+0000][gc,heap       ] GC(3) Eden regions: 50->0(46)
[2021-05-07T10:50:27.603+0000][gc,heap       ] GC(3) Survivor regions: 1->5(7)
[2021-05-07T10:50:27.603+0000][gc,heap       ] GC(3) Old regions: 9->9
[2021-05-07T10:50:27.603+0000][gc,heap       ] GC(3) Humongous regions: 129->129
[2021-05-07T10:50:27.603+0000][gc,metaspace  ] GC(3) Metaspace: 29566K->29566K(1075200K)
[2021-05-07T10:50:27.603+0000][gc            ] GC(3) Pause Young (Normal) (G1 Evacuation Pause) 187M->140M(1024M) 12.024ms
[2021-05-07T10:50:27.603+0000][gc,cpu        ] GC(3) User=0.02s Sys=0.00s Real=0.01s
[2021-05-07T10:50:28.307+0000][gc,start      ] GC(4) Pause Young (Concurrent Start) (Metadata GC Threshold)
[2021-05-07T10:50:28.307+0000][gc,task       ] GC(4) Using 2 workers of 2 for evacuation
[2021-05-07T10:50:28.321+0000][gc,phases     ] GC(4)   Pre Evacuate Collection Set: 0.1ms
[2021-05-07T10:50:28.321+0000][gc,phases     ] GC(4)   Evacuate Collection Set: 13.1ms
[2021-05-07T10:50:28.321+0000][gc,phases     ] GC(4)   Post Evacuate Collection Set: 0.5ms
[2021-05-07T10:50:28.321+0000][gc,phases     ] GC(4)   Other: 0.3ms
[2021-05-07T10:50:28.321+0000][gc,heap       ] GC(4) Eden regions: 20->0(49)
[2021-05-07T10:50:28.321+0000][gc,heap       ] GC(4) Survivor regions: 5->2(7)
[2021-05-07T10:50:28.321+0000][gc,heap       ] GC(4) Old regions: 9->13
[2021-05-07T10:50:28.321+0000][gc,heap       ] GC(4) Humongous regions: 129->129
[2021-05-07T10:50:28.321+0000][gc,metaspace  ] GC(4) Metaspace: 34164K->34164K(1079296K)
[2021-05-07T10:50:28.321+0000][gc            ] GC(4) Pause Young (Concurrent Start) (Metadata GC Threshold) 160M->141M(1024M) 14.154ms
[2021-05-07T10:50:28.321+0000][gc,cpu        ] GC(4) User=0.02s Sys=0.01s Real=0.01s
[2021-05-07T10:50:28.321+0000][gc            ] GC(5) Concurrent Cycle
[2021-05-07T10:50:28.321+0000][gc,marking    ] GC(5) Concurrent Clear Claimed Marks
[2021-05-07T10:50:28.322+0000][gc,marking    ] GC(5) Concurrent Clear Claimed Marks 0.118ms
[2021-05-07T10:50:28.322+0000][gc,marking    ] GC(5) Concurrent Scan Root Regions
[2021-05-07T10:50:28.323+0000][gc,marking    ] GC(5) Concurrent Scan Root Regions 1.659ms
[2021-05-07T10:50:28.323+0000][gc,marking    ] GC(5) Concurrent Mark (9.206s)
[2021-05-07T10:50:28.323+0000][gc,marking    ] GC(5) Concurrent Mark From Roots
[2021-05-07T10:50:28.323+0000][gc,task       ] GC(5) Using 1 workers of 1 for marking
[2021-05-07T10:50:28.399+0000][gc,marking    ] GC(5) Concurrent Mark From Roots 75.988ms
[2021-05-07T10:50:28.399+0000][gc,marking    ] GC(5) Concurrent Preclean
[2021-05-07T10:50:28.399+0000][gc,marking    ] GC(5) Concurrent Preclean 0.094ms
[2021-05-07T10:50:28.399+0000][gc,marking    ] GC(5) Concurrent Mark (9.206s, 9.282s) 76.138ms
[2021-05-07T10:50:28.415+0000][gc,start      ] GC(5) Pause Remark
[2021-05-07T10:50:28.424+0000][gc,stringtable] GC(5) Cleaned string and symbol table, strings: 10349 processed, 12 removed, symbols: 81839 processed, 17 removed
[2021-05-07T10:50:28.424+0000][gc            ] GC(5) Pause Remark 144M->144M(1024M) 9.111ms
[2021-05-07T10:50:28.424+0000][gc,cpu        ] GC(5) User=0.02s Sys=0.00s Real=0.01s
[2021-05-07T10:50:28.424+0000][gc,marking    ] GC(5) Concurrent Rebuild Remembered Sets
[2021-05-07T10:50:28.472+0000][gc,marking    ] GC(5) Concurrent Rebuild Remembered Sets 47.606ms
[2021-05-07T10:50:28.472+0000][gc,start      ] GC(5) Pause Cleanup
[2021-05-07T10:50:28.472+0000][gc            ] GC(5) Pause Cleanup 147M->147M(1024M) 0.450ms
[2021-05-07T10:50:28.472+0000][gc,cpu        ] GC(5) User=0.00s Sys=0.00s Real=0.00s
[2021-05-07T10:50:28.473+0000][gc,marking    ] GC(5) Concurrent Cleanup for Next Mark
[2021-05-07T10:50:28.487+0000][gc,marking    ] GC(5) Concurrent Cleanup for Next Mark 14.612ms
[2021-05-07T10:50:28.487+0000][gc            ] GC(5) Concurrent Cycle 165.726ms
[2021-05-07T10:52:46.796+0000][gc,start      ] GC(6) Pause Young (Concurrent Start) (G1 Evacuation Pause)
[2021-05-07T10:52:46.796+0000][gc,task       ] GC(6) Using 2 workers of 2 for evacuation
[2021-05-07T10:52:46.864+0000][gc,mmu        ] GC(6) MMU target violated: 21.0ms (20.0ms/21.0ms)
[2021-05-07T10:52:46.864+0000][gc,phases     ] GC(6)   Pre Evacuate Collection Set: 0.3ms
[2021-05-07T10:52:46.864+0000][gc,phases     ] GC(6)   Evacuate Collection Set: 67.1ms
[2021-05-07T10:52:46.864+0000][gc,phases     ] GC(6)   Post Evacuate Collection Set: 1.1ms
[2021-05-07T10:52:46.865+0000][gc,phases     ] GC(6)   Other: 0.4ms
[2021-05-07T10:52:46.865+0000][gc,heap       ] GC(6) Eden regions: 49->0(46)
[2021-05-07T10:52:46.865+0000][gc,heap       ] GC(6) Survivor regions: 2->5(7)
[2021-05-07T10:52:46.865+0000][gc,heap       ] GC(6) Old regions: 13->13
[2021-05-07T10:52:46.865+0000][gc,heap       ] GC(6) Humongous regions: 129->129
[2021-05-07T10:52:46.865+0000][gc,metaspace  ] GC(6) Metaspace: 41527K->41527K(1087488K)
[2021-05-07T10:52:46.865+0000][gc            ] GC(6) Pause Young (Concurrent Start) (G1 Evacuation Pause) 190M->144M(1024M) 68.948ms
[2021-05-07T10:52:46.865+0000][gc,cpu        ] GC(6) User=0.03s Sys=0.00s Real=0.07s
[2021-05-07T10:52:46.865+0000][gc            ] GC(7) Concurrent Cycle
[2021-05-07T10:52:46.865+0000][gc,marking    ] GC(7) Concurrent Clear Claimed Marks
[2021-05-07T10:52:46.865+0000][gc,marking    ] GC(7) Concurrent Clear Claimed Marks 0.228ms
[2021-05-07T10:52:46.865+0000][gc,marking    ] GC(7) Concurrent Scan Root Regions
[2021-05-07T10:52:46.873+0000][gc,marking    ] GC(7) Concurrent Scan Root Regions 8.337ms
[2021-05-07T10:52:46.873+0000][gc,marking    ] GC(7) Concurrent Mark (147.756s)
[2021-05-07T10:52:46.873+0000][gc,marking    ] GC(7) Concurrent Mark From Roots
[2021-05-07T10:52:46.873+0000][gc,task       ] GC(7) Using 1 workers of 1 for marking
[2021-05-07T10:52:46.972+0000][gc,marking    ] GC(7) Concurrent Mark From Roots 98.295ms
[2021-05-07T10:52:46.972+0000][gc,marking    ] GC(7) Concurrent Preclean
[2021-05-07T10:52:46.972+0000][gc,marking    ] GC(7) Concurrent Preclean 0.138ms
[2021-05-07T10:52:46.972+0000][gc,marking    ] GC(7) Concurrent Mark (147.756s, 147.855s) 98.505ms
[2021-05-07T10:52:46.972+0000][gc,start      ] GC(7) Pause Remark
[2021-05-07T10:52:46.989+0000][gc,stringtable] GC(7) Cleaned string and symbol table, strings: 11680 processed, 4 removed, symbols: 88860 processed, 6 removed
[2021-05-07T10:52:46.990+0000][gc            ] GC(7) Pause Remark 145M->145M(1024M) 17.814ms
[2021-05-07T10:52:46.990+0000][gc,cpu        ] GC(7) User=0.02s Sys=0.00s Real=0.02s
[2021-05-07T10:52:46.990+0000][gc,marking    ] GC(7) Concurrent Rebuild Remembered Sets
[2021-05-07T10:52:47.040+0000][gc,marking    ] GC(7) Concurrent Rebuild Remembered Sets 50.462ms
[2021-05-07T10:52:47.041+0000][gc,start      ] GC(7) Pause Cleanup
[2021-05-07T10:52:47.041+0000][gc            ] GC(7) Pause Cleanup 145M->145M(1024M) 0.333ms
[2021-05-07T10:52:47.041+0000][gc,cpu        ] GC(7) User=0.00s Sys=0.00s Real=0.00s
[2021-05-07T10:52:47.041+0000][gc,marking    ] GC(7) Concurrent Cleanup for Next Mark
[2021-05-07T10:52:47.054+0000][gc,marking    ] GC(7) Concurrent Cleanup for Next Mark 12.489ms
[2021-05-07T10:52:47.054+0000][gc            ] GC(7) Concurrent Cycle 188.989ms
[2021-05-07T11:06:25.041+0000][gc,start      ] GC(8) Pause Young (Normal) (G1 Evacuation Pause)
[2021-05-07T11:06:25.041+0000][gc,task       ] GC(8) Using 2 workers of 2 for evacuation
[2021-05-07T11:06:25.063+0000][gc,mmu        ] GC(8) MMU target violated: 21.0ms (20.0ms/21.0ms)
[2021-05-07T11:06:25.063+0000][gc,phases     ] GC(8)   Pre Evacuate Collection Set: 0.0ms
[2021-05-07T11:06:25.063+0000][gc,phases     ] GC(8)   Evacuate Collection Set: 21.2ms
[2021-05-07T11:06:25.063+0000][gc,phases     ] GC(8)   Post Evacuate Collection Set: 0.6ms
[2021-05-07T11:06:25.063+0000][gc,phases     ] GC(8)   Other: 0.4ms
[2021-05-07T11:06:25.063+0000][gc,heap       ] GC(8) Eden regions: 46->0(45)
[2021-05-07T11:06:25.063+0000][gc,heap       ] GC(8) Survivor regions: 5->6(7)
[2021-05-07T11:06:25.063+0000][gc,heap       ] GC(8) Old regions: 13->14
[2021-05-07T11:06:25.063+0000][gc,heap       ] GC(8) Humongous regions: 129->129
[2021-05-07T11:06:25.063+0000][gc,metaspace  ] GC(8) Metaspace: 42746K->42746K(1087488K)
[2021-05-07T11:06:25.063+0000][gc            ] GC(8) Pause Young (Normal) (G1 Evacuation Pause) 190M->146M(1024M) 22.280ms
[2021-05-07T11:06:25.063+0000][gc,cpu        ] GC(8) User=0.05s Sys=0.00s Real=0.02s
[2021-05-07T11:21:00.323+0000][gc,start      ] GC(9) Pause Young (Normal) (G1 Evacuation Pause)
[2021-05-07T11:21:00.323+0000][gc,task       ] GC(9) Using 2 workers of 2 for evacuation
[2021-05-07T11:21:00.337+0000][gc,phases     ] GC(9)   Pre Evacuate Collection Set: 0.0ms
[2021-05-07T11:21:00.337+0000][gc,phases     ] GC(9)   Evacuate Collection Set: 13.2ms
[2021-05-07T11:21:00.337+0000][gc,phases     ] GC(9)   Post Evacuate Collection Set: 0.5ms
[2021-05-07T11:21:00.337+0000][gc,phases     ] GC(9)   Other: 0.2ms
[2021-05-07T11:21:00.337+0000][gc,heap       ] GC(9) Eden regions: 45->0(48)
[2021-05-07T11:21:00.337+0000][gc,heap       ] GC(9) Survivor regions: 6->3(7)
[2021-05-07T11:21:00.337+0000][gc,heap       ] GC(9) Old regions: 14->17
[2021-05-07T11:21:00.337+0000][gc,heap       ] GC(9) Humongous regions: 129->129
[2021-05-07T11:21:00.337+0000][gc,metaspace  ] GC(9) Metaspace: 42863K->42863K(1087488K)
[2021-05-07T11:21:00.337+0000][gc            ] GC(9) Pause Young (Normal) (G1 Evacuation Pause) 191M->146M(1024M) 14.086ms
[2021-05-07T11:21:00.337+0000][gc,cpu        ] GC(9) User=0.02s Sys=0.01s Real=0.02s
[2021-05-07T11:38:01.679+0000][gc,start      ] GC(10) Pause Young (Normal) (G1 Evacuation Pause)
[2021-05-07T11:38:01.692+0000][gc,task       ] GC(10) Using 2 workers of 2 for evacuation
[2021-05-07T11:38:01.700+0000][gc,phases     ] GC(10)   Pre Evacuate Collection Set: 0.0ms
[2021-05-07T11:38:01.700+0000][gc,phases     ] GC(10)   Evacuate Collection Set: 6.9ms
[2021-05-07T11:38:01.700+0000][gc,phases     ] GC(10)   Post Evacuate Collection Set: 0.5ms
[2021-05-07T11:38:01.700+0000][gc,phases     ] GC(10)   Other: 13.1ms
[2021-05-07T11:38:01.700+0000][gc,heap       ] GC(10) Eden regions: 48->0(48)
[2021-05-07T11:38:01.700+0000][gc,heap       ] GC(10) Survivor regions: 3->3(7)
[2021-05-07T11:38:01.700+0000][gc,heap       ] GC(10) Old regions: 17->17
[2021-05-07T11:38:01.700+0000][gc,heap       ] GC(10) Humongous regions: 129->129
[2021-05-07T11:38:01.700+0000][gc,metaspace  ] GC(10) Metaspace: 42939K->42939K(1087488K)
[2021-05-07T11:38:01.710+0000][gc            ] GC(10) Pause Young (Normal) (G1 Evacuation Pause) 194M->146M(1024M) 22.525ms
[2021-05-07T11:38:01.710+0000][gc,cpu        ] GC(10) User=0.01s Sys=0.00s Real=0.03s
[2021-05-07T11:54:41.005+0000][gc,start      ] GC(11) Pause Young (Normal) (G1 Evacuation Pause)
[2021-05-07T11:54:41.005+0000][gc,task       ] GC(11) Using 2 workers of 2 for evacuation
[2021-05-07T11:54:41.013+0000][gc,phases     ] GC(11)   Pre Evacuate Collection Set: 0.1ms
[2021-05-07T11:54:41.013+0000][gc,phases     ] GC(11)   Evacuate Collection Set: 7.6ms
[2021-05-07T11:54:41.013+0000][gc,phases     ] GC(11)   Post Evacuate Collection Set: 0.5ms
[2021-05-07T11:54:41.013+0000][gc,phases     ] GC(11)   Other: 0.2ms
[2021-05-07T11:54:41.013+0000][gc,heap       ] GC(11) Eden regions: 48->0(47)
[2021-05-07T11:54:41.013+0000][gc,heap       ] GC(11) Survivor regions: 3->4(7)
[2021-05-07T11:54:41.013+0000][gc,heap       ] GC(11) Old regions: 17->17
[2021-05-07T11:54:41.013+0000][gc,heap       ] GC(11) Humongous regions: 129->129
[2021-05-07T11:54:41.013+0000][gc,metaspace  ] GC(11) Metaspace: 43073K->43073K(1087488K)
[2021-05-07T11:54:41.013+0000][gc            ] GC(11) Pause Young (Normal) (G1 Evacuation Pause) 194M->147M(1024M) 8.411ms
[2021-05-07T11:54:41.013+0000][gc,cpu        ] GC(11) User=0.02s Sys=0.00s Real=0.01s
[2021-05-07T12:12:06.838+0000][gc,start      ] GC(12) Pause Young (Normal) (G1 Evacuation Pause)
[2021-05-07T12:12:06.838+0000][gc,task       ] GC(12) Using 2 workers of 2 for evacuation
[2021-05-07T12:12:06.846+0000][gc,phases     ] GC(12)   Pre Evacuate Collection Set: 0.0ms
[2021-05-07T12:12:06.846+0000][gc,phases     ] GC(12)   Evacuate Collection Set: 7.3ms
[2021-05-07T12:12:06.846+0000][gc,phases     ] GC(12)   Post Evacuate Collection Set: 0.4ms
[2021-05-07T12:12:06.846+0000][gc,phases     ] GC(12)   Other: 0.2ms
[2021-05-07T12:12:06.846+0000][gc,heap       ] GC(12) Eden regions: 47->0(47)
[2021-05-07T12:12:06.846+0000][gc,heap       ] GC(12) Survivor regions: 4->4(7)
[2021-05-07T12:12:06.846+0000][gc,heap       ] GC(12) Old regions: 17->17
[2021-05-07T12:12:06.846+0000][gc,heap       ] GC(12) Humongous regions: 129->129
[2021-05-07T12:12:06.846+0000][gc,metaspace  ] GC(12) Metaspace: 43096K->43096K(1087488K)
[2021-05-07T12:12:06.846+0000][gc            ] GC(12) Pause Young (Normal) (G1 Evacuation Pause) 194M->148M(1024M) 7.985ms
[2021-05-07T12:12:06.846+0000][gc,cpu        ] GC(12) User=0.01s Sys=0.00s Real=0.01s
