[2021-05-07T05:56:56.012+0000][gc,heap] Heap region size: 1M
[2021-05-07T05:56:56.021+0000][gc     ] Using G1
[2021-05-07T05:56:56.021+0000][gc,heap,coops] Heap address: 0x00000000c0000000, size: 1024 MB, Compressed Oops mode: 32-bit
[2021-05-07T05:56:56.022+0000][gc,cds       ] Mark closed archive regions in map: [0x00000000fff00000, 0x00000000fff6aff8]
[2021-05-07T05:56:56.022+0000][gc,cds       ] Mark open archive regions in map: [0x00000000ffe00000, 0x00000000ffe46ff8]
[2021-05-07T05:56:59.651+0000][gc,start     ] GC(0) Pause Young (Normal) (G1 Evacuation Pause)
[2021-05-07T05:56:59.651+0000][gc,task      ] GC(0) Using 2 workers of 2 for evacuation
[2021-05-07T05:56:59.675+0000][gc,mmu       ] GC(0) MMU target violated: 21.0ms (20.0ms/21.0ms)
[2021-05-07T05:56:59.675+0000][gc,phases    ] GC(0)   Pre Evacuate Collection Set: 0.0ms
[2021-05-07T05:56:59.675+0000][gc,phases    ] GC(0)   Evacuate Collection Set: 23.3ms
[2021-05-07T05:56:59.675+0000][gc,phases    ] GC(0)   Post Evacuate Collection Set: 0.5ms
[2021-05-07T05:56:59.675+0000][gc,phases    ] GC(0)   Other: 0.3ms
[2021-05-07T05:56:59.675+0000][gc,heap      ] GC(0) Eden regions: 51->0(44)
[2021-05-07T05:56:59.675+0000][gc,heap      ] GC(0) Survivor regions: 0->7(7)
[2021-05-07T05:56:59.675+0000][gc,heap      ] GC(0) Old regions: 2->2
[2021-05-07T05:56:59.675+0000][gc,heap      ] GC(0) Humongous regions: 0->0
[2021-05-07T05:56:59.675+0000][gc,metaspace ] GC(0) Metaspace: 15744K->15744K(1062912K)
[2021-05-07T05:56:59.675+0000][gc           ] GC(0) Pause Young (Normal) (G1 Evacuation Pause) 51M->7M(1024M) 24.100ms
[2021-05-07T05:56:59.675+0000][gc,cpu       ] GC(0) User=0.02s Sys=0.01s Real=0.03s
[2021-05-07T05:57:01.013+0000][gc,start     ] GC(1) Pause Young (Concurrent Start) (Metadata GC Threshold)
[2021-05-07T05:57:01.013+0000][gc,task      ] GC(1) Using 2 workers of 2 for evacuation
[2021-05-07T05:57:01.037+0000][gc,mmu       ] GC(1) MMU target violated: 21.0ms (20.0ms/21.0ms)
[2021-05-07T05:57:01.037+0000][gc,phases    ] GC(1)   Pre Evacuate Collection Set: 0.1ms
[2021-05-07T05:57:01.037+0000][gc,phases    ] GC(1)   Evacuate Collection Set: 22.4ms
[2021-05-07T05:57:01.037+0000][gc,phases    ] GC(1)   Post Evacuate Collection Set: 0.4ms
[2021-05-07T05:57:01.037+0000][gc,phases    ] GC(1)   Other: 0.3ms
[2021-05-07T05:57:01.037+0000][gc,heap      ] GC(1) Eden regions: 19->0(49)
[2021-05-07T05:57:01.037+0000][gc,heap      ] GC(1) Survivor regions: 7->2(7)
[2021-05-07T05:57:01.037+0000][gc,heap      ] GC(1) Old regions: 2->9
[2021-05-07T05:57:01.037+0000][gc,heap      ] GC(1) Humongous regions: 0->0
[2021-05-07T05:57:01.037+0000][gc,metaspace ] GC(1) Metaspace: 20538K->20538K(1067008K)
[2021-05-07T05:57:01.037+0000][gc           ] GC(1) Pause Young (Concurrent Start) (Metadata GC Threshold) 26M->8M(1024M) 23.272ms
[2021-05-07T05:57:01.037+0000][gc,cpu       ] GC(1) User=0.03s Sys=0.00s Real=0.02s
[2021-05-07T05:57:01.037+0000][gc           ] GC(2) Concurrent Cycle
[2021-05-07T05:57:01.037+0000][gc,marking   ] GC(2) Concurrent Clear Claimed Marks
[2021-05-07T05:57:01.037+0000][gc,marking   ] GC(2) Concurrent Clear Claimed Marks 0.053ms
[2021-05-07T05:57:01.037+0000][gc,marking   ] GC(2) Concurrent Scan Root Regions
[2021-05-07T05:57:01.039+0000][gc,marking   ] GC(2) Concurrent Scan Root Regions 2.034ms
[2021-05-07T05:57:01.039+0000][gc,marking   ] GC(2) Concurrent Mark (5.030s)
[2021-05-07T05:57:01.039+0000][gc,marking   ] GC(2) Concurrent Mark From Roots
[2021-05-07T05:57:01.039+0000][gc,task      ] GC(2) Using 1 workers of 1 for marking
[2021-05-07T05:57:01.049+0000][gc,marking   ] GC(2) Concurrent Mark From Roots 10.364ms
[2021-05-07T05:57:01.049+0000][gc,marking   ] GC(2) Concurrent Preclean
[2021-05-07T05:57:01.049+0000][gc,marking   ] GC(2) Concurrent Preclean 0.059ms
[2021-05-07T05:57:01.049+0000][gc,marking   ] GC(2) Concurrent Mark (5.030s, 5.040s) 10.459ms
[2021-05-07T05:57:01.049+0000][gc,start     ] GC(2) Pause Remark
[2021-05-07T05:57:01.053+0000][gc,stringtable] GC(2) Cleaned string and symbol table, strings: 6357 processed, 0 removed, symbols: 51743 processed, 59 removed
[2021-05-07T05:57:01.053+0000][gc            ] GC(2) Pause Remark 9M->9M(1024M) 3.569ms
[2021-05-07T05:57:01.053+0000][gc,cpu        ] GC(2) User=0.01s Sys=0.00s Real=0.01s
[2021-05-07T05:57:01.053+0000][gc,marking    ] GC(2) Concurrent Rebuild Remembered Sets
[2021-05-07T05:57:01.059+0000][gc,marking    ] GC(2) Concurrent Rebuild Remembered Sets 6.234ms
[2021-05-07T05:57:01.060+0000][gc,start      ] GC(2) Pause Cleanup
[2021-05-07T05:57:01.060+0000][gc            ] GC(2) Pause Cleanup 9M->9M(1024M) 0.322ms
[2021-05-07T05:57:01.060+0000][gc,cpu        ] GC(2) User=0.00s Sys=0.00s Real=0.00s
[2021-05-07T05:57:01.060+0000][gc,marking    ] GC(2) Concurrent Cleanup for Next Mark
[2021-05-07T05:57:01.076+0000][gc,marking    ] GC(2) Concurrent Cleanup for Next Mark 15.388ms
[2021-05-07T05:57:01.076+0000][gc            ] GC(2) Concurrent Cycle 39.148ms
[2021-05-07T05:57:03.556+0000][gc,start      ] GC(3) Pause Young (Normal) (G1 Evacuation Pause)
[2021-05-07T05:57:03.556+0000][gc,task       ] GC(3) Using 2 workers of 2 for evacuation
[2021-05-07T05:57:03.569+0000][gc,phases     ] GC(3)   Pre Evacuate Collection Set: 0.0ms
[2021-05-07T05:57:03.569+0000][gc,phases     ] GC(3)   Evacuate Collection Set: 12.0ms
[2021-05-07T05:57:03.569+0000][gc,phases     ] GC(3)   Post Evacuate Collection Set: 0.4ms
[2021-05-07T05:57:03.569+0000][gc,phases     ] GC(3)   Other: 0.2ms
[2021-05-07T05:57:03.569+0000][gc,heap       ] GC(3) Eden regions: 49->0(46)
[2021-05-07T05:57:03.569+0000][gc,heap       ] GC(3) Survivor regions: 2->5(7)
[2021-05-07T05:57:03.569+0000][gc,heap       ] GC(3) Old regions: 9->9
[2021-05-07T05:57:03.569+0000][gc,heap       ] GC(3) Humongous regions: 129->129
[2021-05-07T05:57:03.569+0000][gc,metaspace  ] GC(3) Metaspace: 29505K->29505K(1075200K)
[2021-05-07T05:57:03.569+0000][gc            ] GC(3) Pause Young (Normal) (G1 Evacuation Pause) 186M->140M(1024M) 12.704ms
[2021-05-07T05:57:03.569+0000][gc,cpu        ] GC(3) User=0.02s Sys=0.00s Real=0.01s
[2021-05-07T05:57:04.241+0000][gc,start      ] GC(4) Pause Young (Concurrent Start) (GCLocker Initiated GC)
[2021-05-07T05:57:04.241+0000][gc,task       ] GC(4) Using 2 workers of 2 for evacuation
[2021-05-07T05:57:04.258+0000][gc,phases     ] GC(4)   Pre Evacuate Collection Set: 0.1ms
[2021-05-07T05:57:04.258+0000][gc,phases     ] GC(4)   Evacuate Collection Set: 16.7ms
[2021-05-07T05:57:04.258+0000][gc,phases     ] GC(4)   Post Evacuate Collection Set: 0.4ms
[2021-05-07T05:57:04.258+0000][gc,phases     ] GC(4)   Other: 0.3ms
[2021-05-07T05:57:04.258+0000][gc,heap       ] GC(4) Eden regions: 21->0(49)
[2021-05-07T05:57:04.258+0000][gc,heap       ] GC(4) Survivor regions: 5->2(7)
[2021-05-07T05:57:04.258+0000][gc,heap       ] GC(4) Old regions: 9->13
[2021-05-07T05:57:04.258+0000][gc,heap       ] GC(4) Humongous regions: 129->129
[2021-05-07T05:57:04.258+0000][gc,metaspace  ] GC(4) Metaspace: 34191K->34191K(1079296K)
[2021-05-07T05:57:04.258+0000][gc            ] GC(4) Pause Young (Concurrent Start) (GCLocker Initiated GC) 161M->142M(1024M) 17.550ms
[2021-05-07T05:57:04.258+0000][gc,cpu        ] GC(4) User=0.03s Sys=0.00s Real=0.02s
[2021-05-07T05:57:04.258+0000][gc            ] GC(5) Concurrent Cycle
[2021-05-07T05:57:04.258+0000][gc,marking    ] GC(5) Concurrent Clear Claimed Marks
[2021-05-07T05:57:04.259+0000][gc,marking    ] GC(5) Concurrent Clear Claimed Marks 0.082ms
[2021-05-07T05:57:04.259+0000][gc,marking    ] GC(5) Concurrent Scan Root Regions
[2021-05-07T05:57:04.263+0000][gc,marking    ] GC(5) Concurrent Scan Root Regions 4.767ms
[2021-05-07T05:57:04.263+0000][gc,marking    ] GC(5) Concurrent Mark (8.254s)
[2021-05-07T05:57:04.263+0000][gc,marking    ] GC(5) Concurrent Mark From Roots
[2021-05-07T05:57:04.263+0000][gc,task       ] GC(5) Using 1 workers of 1 for marking
[2021-05-07T05:57:04.436+0000][gc,marking    ] GC(5) Concurrent Mark From Roots 172.670ms
[2021-05-07T05:57:04.436+0000][gc,marking    ] GC(5) Concurrent Preclean
[2021-05-07T05:57:04.436+0000][gc,marking    ] GC(5) Concurrent Preclean 0.095ms
[2021-05-07T05:57:04.436+0000][gc,marking    ] GC(5) Concurrent Mark (8.254s, 8.427s) 172.819ms
[2021-05-07T05:57:04.443+0000][gc,start      ] GC(5) Pause Remark
[2021-05-07T05:57:04.449+0000][gc,stringtable] GC(5) Cleaned string and symbol table, strings: 10557 processed, 11 removed, symbols: 82645 processed, 17 removed
[2021-05-07T05:57:04.450+0000][gc            ] GC(5) Pause Remark 148M->148M(1024M) 7.005ms
[2021-05-07T05:57:04.450+0000][gc,cpu        ] GC(5) User=0.01s Sys=0.00s Real=0.01s
[2021-05-07T05:57:04.450+0000][gc,marking    ] GC(5) Concurrent Rebuild Remembered Sets
[2021-05-07T05:57:04.466+0000][gc,marking    ] GC(5) Concurrent Rebuild Remembered Sets 15.524ms
[2021-05-07T05:57:04.466+0000][gc,start      ] GC(5) Pause Cleanup
[2021-05-07T05:57:04.466+0000][gc            ] GC(5) Pause Cleanup 148M->148M(1024M) 0.238ms
[2021-05-07T05:57:04.466+0000][gc,cpu        ] GC(5) User=0.00s Sys=0.00s Real=0.00s
[2021-05-07T05:57:04.466+0000][gc,marking    ] GC(5) Concurrent Cleanup for Next Mark
[2021-05-07T05:57:04.483+0000][gc,marking    ] GC(5) Concurrent Cleanup for Next Mark 16.758ms
[2021-05-07T05:57:04.483+0000][gc            ] GC(5) Concurrent Cycle 224.501ms
[2021-05-07T05:59:11.180+0000][gc,start      ] GC(6) Pause Young (Concurrent Start) (G1 Evacuation Pause)
[2021-05-07T05:59:11.180+0000][gc,task       ] GC(6) Using 2 workers of 2 for evacuation
[2021-05-07T05:59:11.195+0000][gc,phases     ] GC(6)   Pre Evacuate Collection Set: 0.2ms
[2021-05-07T05:59:11.195+0000][gc,phases     ] GC(6)   Evacuate Collection Set: 13.4ms
[2021-05-07T05:59:11.195+0000][gc,phases     ] GC(6)   Post Evacuate Collection Set: 0.6ms
[2021-05-07T05:59:11.195+0000][gc,phases     ] GC(6)   Other: 0.3ms
[2021-05-07T05:59:11.195+0000][gc,heap       ] GC(6) Eden regions: 49->0(46)
[2021-05-07T05:59:11.195+0000][gc,heap       ] GC(6) Survivor regions: 2->5(7)
[2021-05-07T05:59:11.195+0000][gc,heap       ] GC(6) Old regions: 13->13
[2021-05-07T05:59:11.195+0000][gc,heap       ] GC(6) Humongous regions: 129->129
[2021-05-07T05:59:11.195+0000][gc,metaspace  ] GC(6) Metaspace: 41545K->41545K(1087488K)
[2021-05-07T05:59:11.195+0000][gc            ] GC(6) Pause Young (Concurrent Start) (G1 Evacuation Pause) 191M->144M(1024M) 14.646ms
[2021-05-07T05:59:11.195+0000][gc,cpu        ] GC(6) User=0.02s Sys=0.00s Real=0.02s
[2021-05-07T05:59:11.195+0000][gc            ] GC(7) Concurrent Cycle
[2021-05-07T05:59:11.195+0000][gc,marking    ] GC(7) Concurrent Clear Claimed Marks
[2021-05-07T05:59:11.195+0000][gc,marking    ] GC(7) Concurrent Clear Claimed Marks 0.128ms
[2021-05-07T05:59:11.195+0000][gc,marking    ] GC(7) Concurrent Scan Root Regions
[2021-05-07T05:59:11.202+0000][gc,marking    ] GC(7) Concurrent Scan Root Regions 7.074ms
[2021-05-07T05:59:11.202+0000][gc,marking    ] GC(7) Concurrent Mark (135.193s)
[2021-05-07T05:59:11.202+0000][gc,marking    ] GC(7) Concurrent Mark From Roots
[2021-05-07T05:59:11.202+0000][gc,task       ] GC(7) Using 1 workers of 1 for marking
[2021-05-07T05:59:11.219+0000][gc,marking    ] GC(7) Concurrent Mark From Roots 17.196ms
[2021-05-07T05:59:11.219+0000][gc,marking    ] GC(7) Concurrent Preclean
[2021-05-07T05:59:11.219+0000][gc,marking    ] GC(7) Concurrent Preclean 0.058ms
[2021-05-07T05:59:11.219+0000][gc,marking    ] GC(7) Concurrent Mark (135.193s, 135.210s) 17.293ms
[2021-05-07T05:59:11.219+0000][gc,start      ] GC(7) Pause Remark
[2021-05-07T05:59:11.228+0000][gc,stringtable] GC(7) Cleaned string and symbol table, strings: 11733 processed, 5 removed, symbols: 88864 processed, 6 removed
[2021-05-07T05:59:11.228+0000][gc            ] GC(7) Pause Remark 145M->145M(1024M) 9.010ms
[2021-05-07T05:59:11.228+0000][gc,cpu        ] GC(7) User=0.01s Sys=0.00s Real=0.01s
[2021-05-07T05:59:11.228+0000][gc,marking    ] GC(7) Concurrent Rebuild Remembered Sets
[2021-05-07T05:59:11.238+0000][gc,marking    ] GC(7) Concurrent Rebuild Remembered Sets 9.210ms
[2021-05-07T05:59:11.238+0000][gc,start      ] GC(7) Pause Cleanup
[2021-05-07T05:59:11.238+0000][gc            ] GC(7) Pause Cleanup 145M->145M(1024M) 0.207ms
[2021-05-07T05:59:11.238+0000][gc,cpu        ] GC(7) User=0.00s Sys=0.00s Real=0.00s
[2021-05-07T05:59:11.238+0000][gc,marking    ] GC(7) Concurrent Cleanup for Next Mark
[2021-05-07T05:59:11.241+0000][gc,marking    ] GC(7) Concurrent Cleanup for Next Mark 2.679ms
[2021-05-07T05:59:11.241+0000][gc            ] GC(7) Concurrent Cycle 46.018ms
[2021-05-07T06:12:38.906+0000][gc,start      ] GC(8) Pause Young (Normal) (G1 Evacuation Pause)
[2021-05-07T06:12:38.918+0000][gc,task       ] GC(8) Using 2 workers of 2 for evacuation
[2021-05-07T06:12:38.933+0000][gc,phases     ] GC(8)   Pre Evacuate Collection Set: 0.0ms
[2021-05-07T06:12:38.933+0000][gc,phases     ] GC(8)   Evacuate Collection Set: 13.7ms
[2021-05-07T06:12:38.933+0000][gc,phases     ] GC(8)   Post Evacuate Collection Set: 0.6ms
[2021-05-07T06:12:38.933+0000][gc,phases     ] GC(8)   Other: 12.9ms
[2021-05-07T06:12:38.933+0000][gc,heap       ] GC(8) Eden regions: 46->0(45)
[2021-05-07T06:12:38.933+0000][gc,heap       ] GC(8) Survivor regions: 5->6(7)
[2021-05-07T06:12:38.933+0000][gc,heap       ] GC(8) Old regions: 13->14
[2021-05-07T06:12:38.933+0000][gc,heap       ] GC(8) Humongous regions: 129->129
[2021-05-07T06:12:38.933+0000][gc,metaspace  ] GC(8) Metaspace: 42887K->42887K(1087488K)
[2021-05-07T06:12:38.945+0000][gc            ] GC(8) Pause Young (Normal) (G1 Evacuation Pause) 190M->146M(1024M) 27.787ms
[2021-05-07T06:12:38.945+0000][gc,cpu        ] GC(8) User=0.03s Sys=0.00s Real=0.04s
[2021-05-07T06:29:30.710+0000][gc,start      ] GC(9) Pause Young (Normal) (G1 Evacuation Pause)
[2021-05-07T06:29:30.716+0000][gc,task       ] GC(9) Using 2 workers of 2 for evacuation
[2021-05-07T06:29:30.727+0000][gc,phases     ] GC(9)   Pre Evacuate Collection Set: 0.0ms
[2021-05-07T06:29:30.727+0000][gc,phases     ] GC(9)   Evacuate Collection Set: 11.0ms
[2021-05-07T06:29:30.727+0000][gc,phases     ] GC(9)   Post Evacuate Collection Set: 0.5ms
[2021-05-07T06:29:30.727+0000][gc,phases     ] GC(9)   Other: 6.2ms
[2021-05-07T06:29:30.727+0000][gc,heap       ] GC(9) Eden regions: 45->0(48)
[2021-05-07T06:29:30.727+0000][gc,heap       ] GC(9) Survivor regions: 6->3(7)
[2021-05-07T06:29:30.727+0000][gc,heap       ] GC(9) Old regions: 14->17
[2021-05-07T06:29:30.727+0000][gc,heap       ] GC(9) Humongous regions: 129->129
[2021-05-07T06:29:30.727+0000][gc,metaspace  ] GC(9) Metaspace: 43111K->43111K(1087488K)
[2021-05-07T06:29:30.728+0000][gc            ] GC(9) Pause Young (Normal) (G1 Evacuation Pause) 191M->146M(1024M) 17.781ms
[2021-05-07T06:29:30.728+0000][gc,cpu        ] GC(9) User=0.02s Sys=0.00s Real=0.02s
[2021-05-07T07:08:05.710+0000][gc,start      ] GC(10) Pause Young (Normal) (G1 Evacuation Pause)
[2021-05-07T07:08:05.711+0000][gc,task       ] GC(10) Using 2 workers of 2 for evacuation
[2021-05-07T07:08:05.717+0000][gc,phases     ] GC(10)   Pre Evacuate Collection Set: 0.0ms
[2021-05-07T07:08:05.717+0000][gc,phases     ] GC(10)   Evacuate Collection Set: 5.3ms
[2021-05-07T07:08:05.717+0000][gc,phases     ] GC(10)   Post Evacuate Collection Set: 1.1ms
[2021-05-07T07:08:05.718+0000][gc,phases     ] GC(10)   Other: 0.6ms
[2021-05-07T07:08:05.718+0000][gc,heap       ] GC(10) Eden regions: 48->0(49)
[2021-05-07T07:08:05.718+0000][gc,heap       ] GC(10) Survivor regions: 3->2(7)
[2021-05-07T07:08:05.718+0000][gc,heap       ] GC(10) Old regions: 17->17
[2021-05-07T07:08:05.718+0000][gc,heap       ] GC(10) Humongous regions: 129->129
[2021-05-07T07:08:05.718+0000][gc,metaspace  ] GC(10) Metaspace: 43306K->43306K(1087488K)
[2021-05-07T07:08:05.718+0000][gc            ] GC(10) Pause Young (Normal) (G1 Evacuation Pause) 194M->146M(1024M) 7.127ms
[2021-05-07T07:08:05.718+0000][gc,cpu        ] GC(10) User=0.01s Sys=0.00s Real=0.01s
[2021-05-07T07:48:41.822+0000][gc,start      ] GC(11) Pause Young (Normal) (G1 Evacuation Pause)
[2021-05-07T07:48:41.822+0000][gc,task       ] GC(11) Using 2 workers of 2 for evacuation
[2021-05-07T07:48:41.827+0000][gc,phases     ] GC(11)   Pre Evacuate Collection Set: 0.0ms
[2021-05-07T07:48:41.827+0000][gc,phases     ] GC(11)   Evacuate Collection Set: 4.6ms
[2021-05-07T07:48:41.827+0000][gc,phases     ] GC(11)   Post Evacuate Collection Set: 0.4ms
[2021-05-07T07:48:41.827+0000][gc,phases     ] GC(11)   Other: 0.6ms
[2021-05-07T07:48:41.827+0000][gc,heap       ] GC(11) Eden regions: 49->0(49)
[2021-05-07T07:48:41.827+0000][gc,heap       ] GC(11) Survivor regions: 2->2(7)
[2021-05-07T07:48:41.827+0000][gc,heap       ] GC(11) Old regions: 17->17
[2021-05-07T07:48:41.827+0000][gc,heap       ] GC(11) Humongous regions: 129->129
[2021-05-07T07:48:41.828+0000][gc,metaspace  ] GC(11) Metaspace: 43366K->43366K(1087488K)
[2021-05-07T07:48:41.829+0000][gc            ] GC(11) Pause Young (Normal) (G1 Evacuation Pause) 195M->146M(1024M) 6.783ms
[2021-05-07T07:48:41.829+0000][gc,cpu        ] GC(11) User=0.01s Sys=0.00s Real=0.01s
[2021-05-07T08:18:17.018+0000][gc,heap,exit  ] Heap
[2021-05-07T08:18:17.018+0000][gc,heap,exit  ]  garbage-first heap   total 1048576K, used 194878K [0x00000000c0000000, 0x0000000100000000)
[2021-05-07T08:18:17.018+0000][gc,heap,exit  ]   region size 1024K, 48 young (49152K), 2 survivors (2048K)
[2021-05-07T08:18:17.018+0000][gc,heap,exit  ]  Metaspace       used 44195K, capacity 47112K, committed 47352K, reserved 1089536K
[2021-05-07T08:18:17.018+0000][gc,heap,exit  ]   class space    used 6192K, capacity 7569K, committed 7672K, reserved 1048576K
