[2021-05-07T08:49:47.051+0000][gc,heap] Heap region size: 1M
[2021-05-07T08:49:47.062+0000][gc     ] Using G1
[2021-05-07T08:49:47.062+0000][gc,heap,coops] Heap address: 0x00000000c0000000, size: 1024 MB, Compressed Oops mode: 32-bit
[2021-05-07T08:49:47.062+0000][gc,cds       ] Mark closed archive regions in map: [0x00000000fff00000, 0x00000000fff6aff8]
[2021-05-07T08:49:47.062+0000][gc,cds       ] Mark open archive regions in map: [0x00000000ffe00000, 0x00000000ffe46ff8]
[2021-05-07T08:49:51.222+0000][gc,start     ] GC(0) Pause Young (Normal) (G1 Evacuation Pause)
[2021-05-07T08:49:51.222+0000][gc,task      ] GC(0) Using 2 workers of 2 for evacuation
[2021-05-07T08:49:51.238+0000][gc,phases    ] GC(0)   Pre Evacuate Collection Set: 0.0ms
[2021-05-07T08:49:51.238+0000][gc,phases    ] GC(0)   Evacuate Collection Set: 15.0ms
[2021-05-07T08:49:51.238+0000][gc,phases    ] GC(0)   Post Evacuate Collection Set: 0.5ms
[2021-05-07T08:49:51.238+0000][gc,phases    ] GC(0)   Other: 0.3ms
[2021-05-07T08:49:51.238+0000][gc,heap      ] GC(0) Eden regions: 51->0(44)
[2021-05-07T08:49:51.238+0000][gc,heap      ] GC(0) Survivor regions: 0->7(7)
[2021-05-07T08:49:51.238+0000][gc,heap      ] GC(0) Old regions: 2->2
[2021-05-07T08:49:51.238+0000][gc,heap      ] GC(0) Humongous regions: 0->0
[2021-05-07T08:49:51.238+0000][gc,metaspace ] GC(0) Metaspace: 15803K->15803K(1062912K)
[2021-05-07T08:49:51.238+0000][gc           ] GC(0) Pause Young (Normal) (G1 Evacuation Pause) 51M->7M(1024M) 15.878ms
[2021-05-07T08:49:51.238+0000][gc,cpu       ] GC(0) User=0.02s Sys=0.01s Real=0.02s
[2021-05-07T08:49:52.357+0000][gc,start     ] GC(1) Pause Young (Concurrent Start) (Metadata GC Threshold)
[2021-05-07T08:49:52.357+0000][gc,task      ] GC(1) Using 2 workers of 2 for evacuation
[2021-05-07T08:49:52.375+0000][gc,phases    ] GC(1)   Pre Evacuate Collection Set: 0.1ms
[2021-05-07T08:49:52.375+0000][gc,phases    ] GC(1)   Evacuate Collection Set: 17.8ms
[2021-05-07T08:49:52.375+0000][gc,phases    ] GC(1)   Post Evacuate Collection Set: 0.4ms
[2021-05-07T08:49:52.375+0000][gc,phases    ] GC(1)   Other: 0.3ms
[2021-05-07T08:49:52.375+0000][gc,heap      ] GC(1) Eden regions: 19->0(50)
[2021-05-07T08:49:52.375+0000][gc,heap      ] GC(1) Survivor regions: 7->1(7)
[2021-05-07T08:49:52.375+0000][gc,heap      ] GC(1) Old regions: 2->9
[2021-05-07T08:49:52.375+0000][gc,heap      ] GC(1) Humongous regions: 0->0
[2021-05-07T08:49:52.375+0000][gc,metaspace ] GC(1) Metaspace: 20539K->20539K(1067008K)
[2021-05-07T08:49:52.375+0000][gc           ] GC(1) Pause Young (Concurrent Start) (Metadata GC Threshold) 26M->8M(1024M) 18.705ms
[2021-05-07T08:49:52.375+0000][gc,cpu       ] GC(1) User=0.02s Sys=0.01s Real=0.02s
[2021-05-07T08:49:52.376+0000][gc           ] GC(2) Concurrent Cycle
[2021-05-07T08:49:52.376+0000][gc,marking   ] GC(2) Concurrent Clear Claimed Marks
[2021-05-07T08:49:52.376+0000][gc,marking   ] GC(2) Concurrent Clear Claimed Marks 0.044ms
[2021-05-07T08:49:52.376+0000][gc,marking   ] GC(2) Concurrent Scan Root Regions
[2021-05-07T08:49:52.377+0000][gc,marking   ] GC(2) Concurrent Scan Root Regions 1.202ms
[2021-05-07T08:49:52.377+0000][gc,marking   ] GC(2) Concurrent Mark (5.329s)
[2021-05-07T08:49:52.377+0000][gc,marking   ] GC(2) Concurrent Mark From Roots
[2021-05-07T08:49:52.377+0000][gc,task      ] GC(2) Using 1 workers of 1 for marking
[2021-05-07T08:49:52.388+0000][gc,marking   ] GC(2) Concurrent Mark From Roots 10.836ms
[2021-05-07T08:49:52.388+0000][gc,marking   ] GC(2) Concurrent Preclean
[2021-05-07T08:49:52.388+0000][gc,marking   ] GC(2) Concurrent Preclean 0.058ms
[2021-05-07T08:49:52.388+0000][gc,marking   ] GC(2) Concurrent Mark (5.329s, 5.340s) 10.932ms
[2021-05-07T08:49:52.388+0000][gc,start     ] GC(2) Pause Remark
[2021-05-07T08:49:52.391+0000][gc,stringtable] GC(2) Cleaned string and symbol table, strings: 6372 processed, 0 removed, symbols: 51743 processed, 59 removed
[2021-05-07T08:49:52.392+0000][gc            ] GC(2) Pause Remark 9M->9M(1024M) 3.928ms
[2021-05-07T08:49:52.392+0000][gc,cpu        ] GC(2) User=0.00s Sys=0.00s Real=0.00s
[2021-05-07T08:49:52.392+0000][gc,marking    ] GC(2) Concurrent Rebuild Remembered Sets
[2021-05-07T08:49:52.396+0000][gc,marking    ] GC(2) Concurrent Rebuild Remembered Sets 4.486ms
[2021-05-07T08:49:52.396+0000][gc,start      ] GC(2) Pause Cleanup
[2021-05-07T08:49:52.397+0000][gc            ] GC(2) Pause Cleanup 9M->9M(1024M) 0.190ms
[2021-05-07T08:49:52.397+0000][gc,cpu        ] GC(2) User=0.00s Sys=0.00s Real=0.00s
[2021-05-07T08:49:52.397+0000][gc,marking    ] GC(2) Concurrent Cleanup for Next Mark
[2021-05-07T08:49:52.406+0000][gc,marking    ] GC(2) Concurrent Cleanup for Next Mark 8.936ms
[2021-05-07T08:49:52.406+0000][gc            ] GC(2) Concurrent Cycle 30.091ms
[2021-05-07T08:49:55.581+0000][gc,start      ] GC(3) Pause Young (Normal) (G1 Evacuation Pause)
[2021-05-07T08:49:55.581+0000][gc,task       ] GC(3) Using 2 workers of 2 for evacuation
[2021-05-07T08:49:55.592+0000][gc,phases     ] GC(3)   Pre Evacuate Collection Set: 0.0ms
[2021-05-07T08:49:55.592+0000][gc,phases     ] GC(3)   Evacuate Collection Set: 10.0ms
[2021-05-07T08:49:55.592+0000][gc,phases     ] GC(3)   Post Evacuate Collection Set: 0.5ms
[2021-05-07T08:49:55.592+0000][gc,phases     ] GC(3)   Other: 0.2ms
[2021-05-07T08:49:55.592+0000][gc,heap       ] GC(3) Eden regions: 50->0(46)
[2021-05-07T08:49:55.592+0000][gc,heap       ] GC(3) Survivor regions: 1->5(7)
[2021-05-07T08:49:55.592+0000][gc,heap       ] GC(3) Old regions: 9->9
[2021-05-07T08:49:55.592+0000][gc,heap       ] GC(3) Humongous regions: 129->129
[2021-05-07T08:49:55.592+0000][gc,metaspace  ] GC(3) Metaspace: 29701K->29701K(1075200K)
[2021-05-07T08:49:55.592+0000][gc            ] GC(3) Pause Young (Normal) (G1 Evacuation Pause) 187M->140M(1024M) 10.807ms
[2021-05-07T08:49:55.592+0000][gc,cpu        ] GC(3) User=0.02s Sys=0.00s Real=0.01s
[2021-05-07T08:49:56.600+0000][gc,start      ] GC(4) Pause Young (Concurrent Start) (Metadata GC Threshold)
[2021-05-07T08:49:56.600+0000][gc,task       ] GC(4) Using 2 workers of 2 for evacuation
[2021-05-07T08:49:56.615+0000][gc,phases     ] GC(4)   Pre Evacuate Collection Set: 0.1ms
[2021-05-07T08:49:56.615+0000][gc,phases     ] GC(4)   Evacuate Collection Set: 13.8ms
[2021-05-07T08:49:56.615+0000][gc,phases     ] GC(4)   Post Evacuate Collection Set: 0.4ms
[2021-05-07T08:49:56.615+0000][gc,phases     ] GC(4)   Other: 0.2ms
[2021-05-07T08:49:56.615+0000][gc,heap       ] GC(4) Eden regions: 20->0(49)
[2021-05-07T08:49:56.615+0000][gc,heap       ] GC(4) Survivor regions: 5->2(7)
[2021-05-07T08:49:56.615+0000][gc,heap       ] GC(4) Old regions: 9->13
[2021-05-07T08:49:56.615+0000][gc,heap       ] GC(4) Humongous regions: 129->129
[2021-05-07T08:49:56.615+0000][gc,metaspace  ] GC(4) Metaspace: 34033K->34033K(1079296K)
[2021-05-07T08:49:56.615+0000][gc            ] GC(4) Pause Young (Concurrent Start) (Metadata GC Threshold) 160M->142M(1024M) 14.702ms
[2021-05-07T08:49:56.615+0000][gc,cpu        ] GC(4) User=0.02s Sys=0.01s Real=0.01s
[2021-05-07T08:49:56.615+0000][gc            ] GC(5) Concurrent Cycle
[2021-05-07T08:49:56.615+0000][gc,marking    ] GC(5) Concurrent Clear Claimed Marks
[2021-05-07T08:49:56.615+0000][gc,marking    ] GC(5) Concurrent Clear Claimed Marks 0.106ms
[2021-05-07T08:49:56.615+0000][gc,marking    ] GC(5) Concurrent Scan Root Regions
[2021-05-07T08:49:56.617+0000][gc,marking    ] GC(5) Concurrent Scan Root Regions 1.519ms
[2021-05-07T08:49:56.617+0000][gc,marking    ] GC(5) Concurrent Mark (9.569s)
[2021-05-07T08:49:56.617+0000][gc,marking    ] GC(5) Concurrent Mark From Roots
[2021-05-07T08:49:56.617+0000][gc,task       ] GC(5) Using 1 workers of 1 for marking
[2021-05-07T08:49:56.673+0000][gc,marking    ] GC(5) Concurrent Mark From Roots 56.801ms
[2021-05-07T08:49:56.674+0000][gc,marking    ] GC(5) Concurrent Preclean
[2021-05-07T08:49:56.674+0000][gc,marking    ] GC(5) Concurrent Preclean 0.084ms
[2021-05-07T08:49:56.674+0000][gc,marking    ] GC(5) Concurrent Mark (9.569s, 9.626s) 56.955ms
[2021-05-07T08:49:56.674+0000][gc,start      ] GC(5) Pause Remark
[2021-05-07T08:49:56.679+0000][gc,stringtable] GC(5) Cleaned string and symbol table, strings: 10243 processed, 12 removed, symbols: 81396 processed, 19 removed
[2021-05-07T08:49:56.679+0000][gc            ] GC(5) Pause Remark 145M->145M(1024M) 5.429ms
[2021-05-07T08:49:56.679+0000][gc,cpu        ] GC(5) User=0.00s Sys=0.01s Real=0.01s
[2021-05-07T08:49:56.679+0000][gc,marking    ] GC(5) Concurrent Rebuild Remembered Sets
[2021-05-07T08:49:56.694+0000][gc,marking    ] GC(5) Concurrent Rebuild Remembered Sets 14.663ms
[2021-05-07T08:49:56.694+0000][gc,start      ] GC(5) Pause Cleanup
[2021-05-07T08:49:56.694+0000][gc            ] GC(5) Pause Cleanup 146M->146M(1024M) 0.262ms
[2021-05-07T08:49:56.694+0000][gc,cpu        ] GC(5) User=0.00s Sys=0.00s Real=0.00s
[2021-05-07T08:49:56.694+0000][gc,marking    ] GC(5) Concurrent Cleanup for Next Mark
[2021-05-07T08:49:56.706+0000][gc,marking    ] GC(5) Concurrent Cleanup for Next Mark 11.527ms
[2021-05-07T08:49:56.706+0000][gc            ] GC(5) Concurrent Cycle 91.058ms
[2021-05-07T08:51:38.992+0000][gc,start      ] GC(6) Pause Young (Normal) (G1 Evacuation Pause)
[2021-05-07T08:51:38.992+0000][gc,task       ] GC(6) Using 2 workers of 2 for evacuation
[2021-05-07T08:51:39.020+0000][gc,mmu        ] GC(6) MMU target violated: 21.0ms (20.0ms/21.0ms)
[2021-05-07T08:51:39.020+0000][gc,phases     ] GC(6)   Pre Evacuate Collection Set: 0.1ms
[2021-05-07T08:51:39.020+0000][gc,phases     ] GC(6)   Evacuate Collection Set: 25.5ms
[2021-05-07T08:51:39.020+0000][gc,phases     ] GC(6)   Post Evacuate Collection Set: 2.5ms
[2021-05-07T08:51:39.020+0000][gc,phases     ] GC(6)   Other: 0.3ms
[2021-05-07T08:51:39.020+0000][gc,heap       ] GC(6) Eden regions: 49->0(47)
[2021-05-07T08:51:39.020+0000][gc,heap       ] GC(6) Survivor regions: 2->4(7)
[2021-05-07T08:51:39.020+0000][gc,heap       ] GC(6) Old regions: 13->13
[2021-05-07T08:51:39.020+0000][gc,heap       ] GC(6) Humongous regions: 129->129
[2021-05-07T08:51:39.020+0000][gc,metaspace  ] GC(6) Metaspace: 41301K->41301K(1085440K)
[2021-05-07T08:51:39.020+0000][gc            ] GC(6) Pause Young (Normal) (G1 Evacuation Pause) 191M->144M(1024M) 28.398ms
[2021-05-07T08:51:39.020+0000][gc,cpu        ] GC(6) User=0.02s Sys=0.00s Real=0.03s
[2021-05-07T09:05:08.097+0000][gc,start      ] GC(7) Pause Young (Normal) (G1 Evacuation Pause)
[2021-05-07T09:05:08.097+0000][gc,task       ] GC(7) Using 2 workers of 2 for evacuation
[2021-05-07T09:05:08.112+0000][gc,phases     ] GC(7)   Pre Evacuate Collection Set: 0.0ms
[2021-05-07T09:05:08.112+0000][gc,phases     ] GC(7)   Evacuate Collection Set: 13.7ms
[2021-05-07T09:05:08.112+0000][gc,phases     ] GC(7)   Post Evacuate Collection Set: 0.6ms
[2021-05-07T09:05:08.112+0000][gc,phases     ] GC(7)   Other: 0.9ms
[2021-05-07T09:05:08.112+0000][gc,heap       ] GC(7) Eden regions: 47->0(45)
[2021-05-07T09:05:08.112+0000][gc,heap       ] GC(7) Survivor regions: 4->6(7)
[2021-05-07T09:05:08.112+0000][gc,heap       ] GC(7) Old regions: 13->15
[2021-05-07T09:05:08.112+0000][gc,heap       ] GC(7) Humongous regions: 129->129
[2021-05-07T09:05:08.112+0000][gc,metaspace  ] GC(7) Metaspace: 42910K->42910K(1087488K)
[2021-05-07T09:05:08.112+0000][gc            ] GC(7) Pause Young (Normal) (G1 Evacuation Pause) 191M->147M(1024M) 15.297ms
[2021-05-07T09:05:08.112+0000][gc,cpu        ] GC(7) User=0.03s Sys=0.01s Real=0.02s
[2021-05-07T09:19:52.228+0000][gc,start      ] GC(8) Pause Young (Normal) (G1 Evacuation Pause)
[2021-05-07T09:19:52.228+0000][gc,task       ] GC(8) Using 2 workers of 2 for evacuation
[2021-05-07T09:19:52.243+0000][gc,phases     ] GC(8)   Pre Evacuate Collection Set: 0.0ms
[2021-05-07T09:19:52.243+0000][gc,phases     ] GC(8)   Evacuate Collection Set: 14.2ms
[2021-05-07T09:19:52.243+0000][gc,phases     ] GC(8)   Post Evacuate Collection Set: 0.5ms
[2021-05-07T09:19:52.243+0000][gc,phases     ] GC(8)   Other: 0.2ms
[2021-05-07T09:19:52.243+0000][gc,heap       ] GC(8) Eden regions: 45->0(48)
[2021-05-07T09:19:52.243+0000][gc,heap       ] GC(8) Survivor regions: 6->3(7)
[2021-05-07T09:19:52.243+0000][gc,heap       ] GC(8) Old regions: 15->17
[2021-05-07T09:19:52.243+0000][gc,heap       ] GC(8) Humongous regions: 129->129
[2021-05-07T09:19:52.243+0000][gc,metaspace  ] GC(8) Metaspace: 43010K->43010K(1087488K)
[2021-05-07T09:19:52.243+0000][gc            ] GC(8) Pause Young (Normal) (G1 Evacuation Pause) 192M->146M(1024M) 15.061ms
[2021-05-07T09:19:52.243+0000][gc,cpu        ] GC(8) User=0.02s Sys=0.00s Real=0.01s
[2021-05-07T09:36:44.716+0000][gc,start      ] GC(9) Pause Young (Normal) (G1 Evacuation Pause)
[2021-05-07T09:36:44.716+0000][gc,task       ] GC(9) Using 2 workers of 2 for evacuation
[2021-05-07T09:36:44.726+0000][gc,phases     ] GC(9)   Pre Evacuate Collection Set: 0.1ms
[2021-05-07T09:36:44.726+0000][gc,phases     ] GC(9)   Evacuate Collection Set: 7.9ms
[2021-05-07T09:36:44.726+0000][gc,phases     ] GC(9)   Post Evacuate Collection Set: 0.6ms
[2021-05-07T09:36:44.726+0000][gc,phases     ] GC(9)   Other: 1.6ms
[2021-05-07T09:36:44.726+0000][gc,heap       ] GC(9) Eden regions: 48->0(48)
[2021-05-07T09:36:44.726+0000][gc,heap       ] GC(9) Survivor regions: 3->3(7)
[2021-05-07T09:36:44.726+0000][gc,heap       ] GC(9) Old regions: 17->17
[2021-05-07T09:36:44.726+0000][gc,heap       ] GC(9) Humongous regions: 129->129
[2021-05-07T09:36:44.726+0000][gc,metaspace  ] GC(9) Metaspace: 43088K->43088K(1087488K)
[2021-05-07T09:36:44.726+0000][gc            ] GC(9) Pause Young (Normal) (G1 Evacuation Pause) 194M->147M(1024M) 10.203ms
[2021-05-07T09:36:44.726+0000][gc,cpu        ] GC(9) User=0.02s Sys=0.00s Real=0.02s
[2021-05-07T09:53:09.631+0000][gc,start      ] GC(10) Pause Young (Normal) (G1 Evacuation Pause)
[2021-05-07T09:53:09.632+0000][gc,task       ] GC(10) Using 2 workers of 2 for evacuation
[2021-05-07T09:53:09.640+0000][gc,phases     ] GC(10)   Pre Evacuate Collection Set: 0.0ms
[2021-05-07T09:53:09.640+0000][gc,phases     ] GC(10)   Evacuate Collection Set: 6.7ms
[2021-05-07T09:53:09.640+0000][gc,phases     ] GC(10)   Post Evacuate Collection Set: 0.6ms
[2021-05-07T09:53:09.640+0000][gc,phases     ] GC(10)   Other: 1.9ms
[2021-05-07T09:53:09.640+0000][gc,heap       ] GC(10) Eden regions: 48->0(48)
[2021-05-07T09:53:09.640+0000][gc,heap       ] GC(10) Survivor regions: 3->3(7)
[2021-05-07T09:53:09.640+0000][gc,heap       ] GC(10) Old regions: 17->17
[2021-05-07T09:53:09.640+0000][gc,heap       ] GC(10) Humongous regions: 129->129
[2021-05-07T09:53:09.640+0000][gc,metaspace  ] GC(10) Metaspace: 43206K->43206K(1087488K)
[2021-05-07T09:53:09.640+0000][gc            ] GC(10) Pause Young (Normal) (G1 Evacuation Pause) 195M->147M(1024M) 9.431ms
[2021-05-07T09:53:09.640+0000][gc,cpu        ] GC(10) User=0.01s Sys=0.00s Real=0.01s
[2021-05-07T10:10:34.631+0000][gc,start      ] GC(11) Pause Young (Normal) (G1 Evacuation Pause)
[2021-05-07T10:10:34.631+0000][gc,task       ] GC(11) Using 2 workers of 2 for evacuation
[2021-05-07T10:10:34.646+0000][gc,phases     ] GC(11)   Pre Evacuate Collection Set: 0.0ms
[2021-05-07T10:10:34.646+0000][gc,phases     ] GC(11)   Evacuate Collection Set: 11.8ms
[2021-05-07T10:10:34.648+0000][gc,phases     ] GC(11)   Post Evacuate Collection Set: 2.9ms
[2021-05-07T10:10:34.648+0000][gc,phases     ] GC(11)   Other: 0.7ms
[2021-05-07T10:10:34.648+0000][gc,heap       ] GC(11) Eden regions: 48->0(48)
[2021-05-07T10:10:34.648+0000][gc,heap       ] GC(11) Survivor regions: 3->3(7)
[2021-05-07T10:10:34.648+0000][gc,heap       ] GC(11) Old regions: 17->17
[2021-05-07T10:10:34.648+0000][gc,heap       ] GC(11) Humongous regions: 129->129
[2021-05-07T10:10:34.648+0000][gc,metaspace  ] GC(11) Metaspace: 43239K->43239K(1087488K)
[2021-05-07T10:10:34.648+0000][gc            ] GC(11) Pause Young (Normal) (G1 Evacuation Pause) 195M->147M(1024M) 17.001ms
[2021-05-07T10:10:34.648+0000][gc,cpu        ] GC(11) User=0.02s Sys=0.01s Real=0.02s
[2021-05-07T10:27:59.670+0000][gc,start      ] GC(12) Pause Young (Normal) (G1 Evacuation Pause)
[2021-05-07T10:27:59.675+0000][gc,task       ] GC(12) Using 2 workers of 2 for evacuation
[2021-05-07T10:27:59.889+0000][gc,mmu        ] GC(12) MMU target violated: 21.0ms (20.0ms/21.0ms)
[2021-05-07T10:27:59.889+0000][gc,phases     ] GC(12)   Pre Evacuate Collection Set: 118.1ms
[2021-05-07T10:27:59.889+0000][gc,phases     ] GC(12)   Evacuate Collection Set: 91.1ms
[2021-05-07T10:27:59.889+0000][gc,phases     ] GC(12)   Post Evacuate Collection Set: 4.1ms
[2021-05-07T10:27:59.889+0000][gc,phases     ] GC(12)   Other: 151.1ms
[2021-05-07T10:27:59.889+0000][gc,heap       ] GC(12) Eden regions: 48->0(48)
[2021-05-07T10:27:59.889+0000][gc,heap       ] GC(12) Survivor regions: 3->3(7)
[2021-05-07T10:27:59.889+0000][gc,heap       ] GC(12) Old regions: 17->17
[2021-05-07T10:27:59.889+0000][gc,heap       ] GC(12) Humongous regions: 129->129
[2021-05-07T10:27:59.889+0000][gc,metaspace  ] GC(12) Metaspace: 43283K->43283K(1087488K)
[2021-05-07T10:27:59.894+0000][gc            ] GC(12) Pause Young (Normal) (G1 Evacuation Pause) 195M->147M(1024M) 218.588ms
[2021-05-07T10:27:59.894+0000][gc,cpu        ] GC(12) User=0.01s Sys=0.00s Real=0.22s
