[2021-05-07T10:49:54.231+0000][gc,heap] Heap region size: 1M
[2021-05-07T10:49:54.239+0000][gc     ] Using G1
[2021-05-07T10:49:54.239+0000][gc,heap,coops] Heap address: 0x00000000e0000000, size: 512 MB, Compressed Oops mode: 32-bit
[2021-05-07T10:49:54.239+0000][gc,cds       ] Mark closed archive regions in map: [0x00000000fff00000, 0x00000000fff6aff8]
[2021-05-07T10:49:54.239+0000][gc,cds       ] Mark open archive regions in map: [0x00000000ffe00000, 0x00000000ffe46ff8]
[2021-05-07T10:50:22.666+0000][gc,start     ] GC(0) Pause Young (Normal) (G1 Evacuation Pause)
[2021-05-07T10:50:22.666+0000][gc,task      ] GC(0) Using 2 workers of 2 for evacuation
[2021-05-07T10:50:22.683+0000][gc,phases    ] GC(0)   Pre Evacuate Collection Set: 0.0ms
[2021-05-07T10:50:22.683+0000][gc,phases    ] GC(0)   Evacuate Collection Set: 16.0ms
[2021-05-07T10:50:22.683+0000][gc,phases    ] GC(0)   Post Evacuate Collection Set: 0.4ms
[2021-05-07T10:50:22.683+0000][gc,phases    ] GC(0)   Other: 0.2ms
[2021-05-07T10:50:22.683+0000][gc,heap      ] GC(0) Eden regions: 25->0(21)
[2021-05-07T10:50:22.683+0000][gc,heap      ] GC(0) Survivor regions: 0->4(4)
[2021-05-07T10:50:22.683+0000][gc,heap      ] GC(0) Old regions: 2->4
[2021-05-07T10:50:22.683+0000][gc,heap      ] GC(0) Humongous regions: 0->0
[2021-05-07T10:50:22.683+0000][gc,metaspace ] GC(0) Metaspace: 7759K->7759K(1056768K)
[2021-05-07T10:50:22.683+0000][gc           ] GC(0) Pause Young (Normal) (G1 Evacuation Pause) 25M->6M(512M) 16.695ms
[2021-05-07T10:50:22.683+0000][gc,cpu       ] GC(0) User=0.02s Sys=0.00s Real=0.01s
[2021-05-07T12:12:11.523+0000][gc,heap,exit ] Heap
[2021-05-07T12:12:11.527+0000][gc,heap,exit ]  garbage-first heap   total 524288K, used 16587K [0x00000000e0000000, 0x0000000100000000)
[2021-05-07T12:12:11.527+0000][gc,heap,exit ]   region size 1024K, 15 young (15360K), 4 survivors (4096K)
[2021-05-07T12:12:11.527+0000][gc,heap,exit ]  Metaspace       used 8546K, capacity 8860K, committed 8960K, reserved 1056768K
[2021-05-07T12:12:11.527+0000][gc,heap,exit ]   class space    used 916K, capacity 1018K, committed 1024K, reserved 1048576K
